<?xml version="1.0" encoding="iso-8859-1"?>
<!-- Generator: Adobe Illustrator 19.0.0, SVG Export Plug-In . SVG Version: 6.00 Build 0)  -->
<svg version="1.1" id="Capa_1" xmlns="http://www.w3.org/2000/svg"  x="0px" y="0px"
	 viewBox="0 0 511.999 511.999" style="enable-background:new 0 0 511.999 511.999;" xml:space="preserve">
<g>
	<g>
		<path d="M297.609,129.291c-17.301,0-31.377,14.076-31.377,31.377c0,17.301,14.076,31.377,31.377,31.377
			c17.302,0,31.377-14.076,31.377-31.377C328.986,143.367,314.911,129.291,297.609,129.291z M297.609,172.044
			c-6.273,0-11.377-5.104-11.377-11.377c0-6.273,5.104-11.377,11.377-11.377s11.377,5.104,11.377,11.377
			C308.986,166.94,303.883,172.044,297.609,172.044z"/>
	</g>
</g>
<g>
	<g>
		<path d="M413.06,284.274h-57.665c-4.96,0-9.065,3.614-9.853,8.351h-20.055l-14.156-26.047
			c14.699-6.494,28.218-15.722,39.922-27.426c21.352-21.353,34.464-48.741,37.76-78.313c0.016-0.14,0.031-0.28,0.046-0.421
			c0.087-0.801,0.167-1.604,0.239-2.409c0.023-0.257,0.044-0.514,0.066-0.772c0.06-0.713,0.117-1.426,0.165-2.141
			c0.026-0.377,0.046-0.753,0.069-1.13c0.036-0.616,0.074-1.232,0.102-1.849c0.025-0.541,0.041-1.083,0.059-1.624
			c0.016-0.469,0.036-0.936,0.047-1.406c0.024-1.029,0.038-2.059,0.038-3.088c0-0.002,0-0.003,0-0.005
			c0-28.94-9.207-56.404-26.625-79.422c-10.123-13.377-22.818-24.7-37.105-33.346c-0.574-0.347-1.137-0.71-1.716-1.049
			c-0.336-0.197-0.682-0.376-1.02-0.57c-1.169-0.67-2.339-1.337-3.528-1.971c-7.661-4.085-15.718-7.414-24.037-9.894
			c-0.004-0.001-0.008-0.002-0.012-0.003c-11.316-3.377-23.055-5.188-34.931-5.434V10c0-2.847-1.213-5.559-3.336-7.456
			c-2.123-1.897-4.951-2.801-7.783-2.481c-22.521,2.535-54.28,5.831-77.69,7.14c-22.383,1.252-37.954,23.583-41.654,59.733
			c-0.757,7.399-0.714,15.079,0.13,22.826c0.022,0.206,0.051,0.41,0.086,0.614l14.664,85.192c0.298,3.529,1.045,6.268,2.047,8.398
			c0.52,20.25,6.845,39.662,18.401,56.296c10.054,14.47,23.437,26.015,39.053,33.766l-5.529,20.257h-37.73
			c-40.026,0-72.59,32.563-72.59,72.59v135.124c0,5.523,4.477,10,10,10h305.914c5.523,0,10-4.477,10-10V387.943
			c4.666-0.846,8.207-4.921,8.207-9.831v-83.838C423.06,288.751,418.583,284.274,413.06,284.274z M167.172,144.02
			c-0.269,0.826-0.543,1.648-0.821,2.463c-0.06,0.175-0.121,0.347-0.181,0.521c-0.225,0.652-0.452,1.301-0.681,1.943
			c-0.094,0.264-0.189,0.527-0.284,0.79c-0.216,0.598-0.434,1.191-0.653,1.778c-0.079,0.212-0.157,0.426-0.237,0.636
			c-0.29,0.768-0.581,1.525-0.873,2.269c-0.075,0.19-0.149,0.374-0.224,0.562c-0.226,0.569-0.451,1.13-0.677,1.682
			c-0.05,0.122-0.1,0.242-0.15,0.363l-12.002-69.731c-0.661-6.251-0.689-12.414-0.084-18.324c1.924-18.8,9.069-41.029,22.874-41.801
			c20.199-1.129,46.333-3.691,67.692-6.006v3.071c0,0.006-0.001,0.013-0.001,0.019V102.3c-0.594-0.07-1.203-0.145-1.82-0.223
			c-0.22-0.028-0.446-0.058-0.669-0.087c-0.422-0.054-0.846-0.11-1.277-0.168c-0.257-0.035-0.516-0.07-0.776-0.105
			c-0.422-0.058-0.847-0.117-1.276-0.178c-0.25-0.035-0.5-0.07-0.753-0.107c-0.494-0.071-0.993-0.144-1.495-0.218
			c-0.194-0.029-0.386-0.056-0.581-0.086c-0.682-0.102-1.371-0.207-2.067-0.314c-0.21-0.032-0.422-0.066-0.633-0.099
			c-0.516-0.081-1.033-0.162-1.554-0.245c-0.256-0.041-0.513-0.082-0.77-0.124c-0.48-0.077-0.963-0.156-1.447-0.235
			c-0.266-0.044-0.533-0.087-0.8-0.131c-0.523-0.086-1.049-0.174-1.575-0.263c-0.215-0.036-0.428-0.072-0.643-0.108
			c-0.738-0.125-1.478-0.251-2.219-0.379c-0.116-0.02-0.232-0.041-0.347-0.061c-0.641-0.111-1.283-0.223-1.925-0.336
			c-0.22-0.039-0.44-0.078-0.66-0.117c-0.544-0.096-1.088-0.193-1.631-0.291c-0.234-0.042-0.469-0.084-0.703-0.126
			c-0.552-0.099-1.103-0.199-1.653-0.3c-0.204-0.037-0.408-0.074-0.611-0.111c-1.505-0.276-3-0.553-4.473-0.831
			c-0.157-0.03-0.312-0.059-0.469-0.089c-0.586-0.111-1.168-0.221-1.746-0.332c-0.183-0.035-0.366-0.07-0.548-0.105
			c-0.565-0.108-1.126-0.216-1.683-0.323c-0.168-0.032-0.336-0.065-0.503-0.097c-0.69-0.134-1.375-0.267-2.048-0.399
			c-0.003,0-0.005-0.001-0.008-0.001c-0.729-0.143-1.447-0.284-2.154-0.424c-0.04-0.008-0.079-0.016-0.119-0.024
			c-0.618-0.123-1.226-0.244-1.824-0.363c-0.154-0.031-0.305-0.061-0.457-0.092c-0.517-0.104-1.027-0.206-1.527-0.307
			c-0.128-0.026-0.256-0.052-0.383-0.078c-0.558-0.113-1.105-0.224-1.64-0.334c-0.057-0.012-0.117-0.024-0.174-0.036
			c-1.197-0.245-2.331-0.479-3.396-0.702c-0.125-0.026-0.245-0.051-0.368-0.077c-0.38-0.08-0.75-0.157-1.11-0.233
			c-0.158-0.033-0.315-0.067-0.469-0.099c-0.341-0.072-0.671-0.142-0.993-0.211c-0.122-0.026-0.248-0.053-0.367-0.078
			c-0.433-0.093-0.851-0.183-1.244-0.268c-2.957-0.641-6.042,0.093-8.394,1.991c-2.353,1.898-3.721,4.76-3.721,7.783l-0.002,12.549
			c-0.004,0.651-0.03,1.328-0.066,2.017c-0.011,0.202-0.025,0.409-0.039,0.615c-0.034,0.523-0.077,1.056-0.128,1.598
			c-0.019,0.204-0.037,0.407-0.059,0.614c-0.077,0.731-0.164,1.472-0.268,2.231c-0.006,0.047-0.015,0.095-0.021,0.142
			c-0.1,0.717-0.215,1.448-0.339,2.188c-0.039,0.231-0.08,0.465-0.121,0.698c-0.105,0.599-0.217,1.203-0.336,1.813
			c-0.042,0.218-0.083,0.435-0.127,0.655c-0.163,0.809-0.334,1.625-0.519,2.449c-0.022,0.097-0.046,0.195-0.068,0.292
			c-0.166,0.735-0.342,1.475-0.524,2.219c-0.062,0.251-0.125,0.504-0.188,0.756c-0.16,0.636-0.324,1.275-0.494,1.915
			c-0.059,0.224-0.117,0.446-0.177,0.67c-0.227,0.842-0.461,1.685-0.704,2.529c-0.039,0.137-0.081,0.274-0.121,0.412
			c-0.208,0.717-0.421,1.433-0.639,2.148c-0.079,0.259-0.159,0.517-0.239,0.776c-0.197,0.638-0.398,1.274-0.602,1.908
			C167.314,143.575,167.244,143.798,167.172,144.02z M167.501,187.348c2.599-2.365,4.678-5.46,6.379-8.334
			c0.145-0.246,0.292-0.513,0.438-0.767c0.166-0.283,0.331-0.578,0.497-0.87c0.077-0.139,0.154-0.272,0.232-0.413
			c2.544-4.557,5.11-10.215,7.687-16.969c0.016-0.041,0.032-0.08,0.047-0.121c0.187-0.488,0.409-1.08,0.655-1.745
			c0.046-0.124,0.092-0.241,0.138-0.365c0.066-0.18,0.128-0.359,0.194-0.539c0.161-0.442,0.328-0.905,0.505-1.402
			c1.647-4.608,3.097-9.191,4.322-13.633c2.188-7.864,4.162-16.998,4.51-25.202c0.002-0.049,0.005-0.099,0.007-0.149
			c0.027-0.68,0.047-1.356,0.051-2.022l0.001-0.37c0.69,0.139,1.409,0.282,2.141,0.427c0.214,0.043,0.427,0.085,0.645,0.128
			c0.718,0.142,1.451,0.287,2.203,0.434c0.18,0.035,0.364,0.071,0.546,0.106c0.631,0.123,1.273,0.248,1.925,0.374
			c0.24,0.046,0.476,0.092,0.719,0.139c0.774,0.149,1.561,0.299,2.359,0.451c0.251,0.048,0.503,0.095,0.756,0.143
			c0.691,0.131,1.388,0.262,2.093,0.393c0.201,0.037,0.399,0.075,0.601,0.112c0.835,0.155,1.681,0.311,2.531,0.466
			c0.268,0.049,0.536,0.098,0.806,0.147c0.862,0.157,1.729,0.313,2.602,0.469c0.188,0.033,0.376,0.066,0.564,0.1
			c0.764,0.135,1.53,0.27,2.299,0.404c0.247,0.043,0.494,0.086,0.742,0.129c0.892,0.154,1.786,0.307,2.68,0.458
			c0.217,0.037,0.434,0.073,0.651,0.109c0.808,0.135,1.616,0.269,2.422,0.401c0.165,0.027,0.331,0.054,0.496,0.081
			c0.913,0.148,1.822,0.293,2.727,0.435c0.223,0.035,0.445,0.069,0.667,0.104c0.931,0.145,1.858,0.287,2.776,0.423
			c0.015,0.002,0.029,0.004,0.044,0.006c0.91,0.135,1.81,0.265,2.702,0.391c0.195,0.028,0.39,0.055,0.584,0.082
			c0.886,0.124,1.762,0.243,2.625,0.356c0.133,0.017,0.264,0.034,0.397,0.051c0.792,0.103,1.572,0.2,2.34,0.293
			c0.138,0.017,0.278,0.034,0.415,0.051c0.834,0.099,1.65,0.191,2.451,0.277c0.064,0.007,0.133,0.015,0.197,0.022l0.001,211.963
			l-22.925-32.591l8.398-30.769c1.345-4.927-1.239-10.075-5.992-11.941C190.02,247.162,169.787,219.418,167.501,187.348z
			 M240.872,491.999H108.939V366.875c0-25.496,18.24-46.805,42.354-51.582v109.549c0,5.523,4.477,10,10,10s10-4.477,10-10V314.285
			h30.996l38.583,54.85V491.999z M302.958,43.638c1.212,0.531,2.409,1.093,3.598,1.668c0.296,0.143,0.592,0.288,0.887,0.434
			c1.186,0.587,2.364,1.188,3.525,1.816c0.059,0.032,0.117,0.066,0.177,0.099c1.114,0.605,2.212,1.233,3.302,1.875
			c0.278,0.164,0.556,0.328,0.833,0.494c1.123,0.675,2.237,1.363,3.334,2.075c0.11,0.071,0.217,0.146,0.327,0.218
			c1.01,0.661,2.007,1.342,2.993,2.034c0.256,0.18,0.512,0.359,0.767,0.541c1.058,0.756,2.106,1.527,3.135,2.319
			c0.143,0.11,0.282,0.224,0.425,0.334c0.92,0.715,1.828,1.445,2.724,2.187c0.233,0.193,0.466,0.384,0.697,0.578
			c0.991,0.834,1.969,1.682,2.929,2.548c0.159,0.144,0.315,0.291,0.473,0.436c0.843,0.769,1.673,1.552,2.492,2.346
			c0.207,0.201,0.416,0.401,0.622,0.603c0.919,0.905,1.823,1.824,2.71,2.76c0.168,0.177,0.331,0.357,0.497,0.535
			c0.771,0.824,1.529,1.659,2.275,2.505c0.179,0.203,0.36,0.404,0.538,0.609c0.846,0.973,1.675,1.96,2.486,2.961
			c0.166,0.204,0.328,0.412,0.492,0.618c0.705,0.881,1.396,1.773,2.074,2.675c0.149,0.199,0.302,0.396,0.45,0.596
			c0.768,1.036,1.517,2.085,2.25,3.147c0.159,0.231,0.315,0.464,0.472,0.696c0.64,0.943,1.267,1.895,1.879,2.857
			c0.117,0.184,0.237,0.366,0.353,0.551c0.688,1.095,1.355,2.205,2.005,3.324c0.147,0.253,0.29,0.508,0.435,0.762
			c0.576,1.01,1.139,2.028,1.685,3.056c0.085,0.161,0.174,0.319,0.258,0.48c0.604,1.151,1.184,2.315,1.748,3.487
			c0.13,0.271,0.258,0.543,0.386,0.814c0.512,1.087,1.01,2.181,1.488,3.285c0.053,0.123,0.11,0.244,0.162,0.367
			c0.515,1.202,1.004,2.416,1.478,3.636c0.111,0.286,0.22,0.574,0.329,0.862c0.445,1.177,0.876,2.359,1.282,3.552
			c0.023,0.067,0.048,0.133,0.071,0.201c0.009,0.025,0.016,0.051,0.024,0.076c-2.447-3.304-5.053-6.501-7.816-9.584
			c-14.586-16.272-32.877-28.61-53.251-35.983V43.638z M260.873,34.289c1.119,0.027,2.236,0.077,3.352,0.137
			c0.327,0.018,0.655,0.04,0.983,0.06c0.828,0.052,1.655,0.113,2.48,0.184c0.327,0.028,0.655,0.054,0.982,0.085
			c1.104,0.104,2.208,0.219,3.307,0.355c0.005,0.001,0.011,0.001,0.017,0.002c1.107,0.137,2.21,0.297,3.312,0.467
			c0.32,0.05,0.639,0.104,0.959,0.156c0.819,0.134,1.636,0.277,2.452,0.429c0.32,0.06,0.64,0.118,0.959,0.18
			c1.078,0.211,2.154,0.433,3.226,0.676c0.014,0.003,0.028,0.006,0.042,0.009c0.005,0.001,0.01,0.002,0.015,0.004v31.111
			c0,0.774-0.039,1.539-0.094,2.299c-0.013,0.187-0.025,0.373-0.041,0.561c-1.15,12.943-10.01,23.704-21.951,27.63V34.289z
			 M260.873,119.257c18.228-3.561,33.077-16.654,39.136-33.863c34.618,14.072,60.584,45.264,67.757,82.206
			c-4.213,21.613-14.735,41.489-30.655,57.409c-12.243,12.243-26.829,21.291-42.746,26.733c-0.153,0.044-0.307,0.081-0.459,0.133
			c-8.528,2.883-17.358,4.706-26.351,5.458c-0.179,0.015-0.357,0.031-0.536,0.045c-1.352,0.107-2.708,0.188-4.067,0.246
			c-0.221,0.009-0.442,0.016-0.663,0.024c-0.471,0.017-0.944,0.017-1.416,0.029V119.257z M260.872,277.705
			c0.076-0.002,0.151-0.006,0.226-0.008c1.242-0.028,2.482-0.07,3.718-0.132c0.086-0.004,0.172-0.011,0.258-0.016
			c1.173-0.061,2.343-0.139,3.51-0.23c0.238-0.019,0.476-0.041,0.715-0.061c1.068-0.089,2.133-0.191,3.195-0.306
			c0.18-0.02,0.361-0.039,0.541-0.06c6.514-0.73,12.921-1.937,19.181-3.603l10.508,19.336h-41.852V277.705z M353.599,491.999
			h-28.244V380.283c0-5.523-4.477-10-10-10s-10,4.477-10,10v111.716h-44.486V365.971v-53.346h84.522v65.487h0.004
			c0,0.328,0.018,0.651,0.049,0.97c0.01,0.106,0.029,0.209,0.042,0.313c0.027,0.212,0.056,0.423,0.096,0.631
			c0.024,0.122,0.054,0.241,0.082,0.361c0.043,0.187,0.089,0.372,0.142,0.554c0.037,0.124,0.078,0.246,0.119,0.367
			c0.059,0.173,0.12,0.345,0.188,0.514c0.048,0.121,0.099,0.24,0.152,0.359c0.074,0.165,0.152,0.326,0.234,0.486
			c0.059,0.114,0.117,0.228,0.18,0.34c0.09,0.161,0.188,0.317,0.286,0.471c0.065,0.103,0.128,0.206,0.197,0.306
			c0.114,0.165,0.236,0.323,0.359,0.48c0.064,0.082,0.125,0.167,0.191,0.247c0.183,0.219,0.375,0.431,0.576,0.634
			c0.015,0.015,0.028,0.031,0.043,0.046c0.212,0.211,0.434,0.411,0.663,0.603c0.079,0.066,0.162,0.125,0.243,0.188
			c0.159,0.124,0.318,0.247,0.484,0.362c0.099,0.069,0.203,0.131,0.305,0.197c0.155,0.099,0.312,0.197,0.473,0.287
			c0.111,0.063,0.225,0.121,0.338,0.179c0.161,0.082,0.323,0.161,0.488,0.235c0.118,0.053,0.237,0.103,0.357,0.151
			c0.17,0.068,0.342,0.13,0.517,0.189c0.121,0.041,0.242,0.081,0.365,0.118c0.184,0.054,0.371,0.1,0.559,0.144
			c0.118,0.027,0.235,0.057,0.355,0.081c0.041,0.008,0.08,0.02,0.121,0.028V491.999z M394.853,492h-21.251V388.112h21.251V492z
			 M403.06,368.112h-37.665v-63.838h37.665V368.112z"/>
	</g>
</g>
<g>
	<g>
		<path d="M325.159,341.249c-0.12-0.63-0.32-1.26-0.57-1.87c-0.25-0.6-0.56-1.18-0.92-1.72c-0.36-0.55-0.78-1.06-1.24-1.52
			c-0.46-0.46-0.97-0.88-1.52-1.25c-0.54-0.36-1.12-0.67-1.73-0.92c-0.6-0.25-1.23-0.44-1.87-0.57c-1.29-0.26-2.62-0.26-3.91,0
			c-0.63,0.13-1.26,0.32-1.87,0.57c-0.6,0.25-1.18,0.56-1.72,0.92c-0.55,0.37-1.06,0.79-1.52,1.25c-0.46,0.46-0.88,0.97-1.25,1.52
			c-0.36,0.54-0.67,1.12-0.91,1.72c-0.25,0.61-0.45,1.24-0.57,1.87c-0.13,0.65-0.2,1.31-0.2,1.96c0,0.65,0.07,1.31,0.2,1.95
			c0.12,0.64,0.32,1.27,0.57,1.87c0.25,0.61,0.55,1.19,0.91,1.73c0.37,0.55,0.79,1.06,1.25,1.52c0.46,0.46,0.97,0.88,1.52,1.24
			c0.54,0.36,1.12,0.67,1.72,0.92c0.61,0.25,1.24,0.44,1.87,0.57c0.65,0.13,1.31,0.2,1.96,0.2c0.65,0,1.31-0.07,1.95-0.2
			s1.27-0.32,1.87-0.57c0.61-0.25,1.19-0.56,1.73-0.92c0.55-0.36,1.06-0.78,1.52-1.24c0.46-0.46,0.88-0.97,1.24-1.52
			c0.36-0.54,0.67-1.12,0.92-1.73c0.25-0.6,0.45-1.23,0.57-1.87c0.13-0.64,0.2-1.3,0.2-1.95S325.289,341.899,325.159,341.249z"/>
	</g>
</g>
<g>
	<g>
		<path d="M171.099,459.959c-0.13-0.629-0.32-1.26-0.57-1.87c-0.25-0.6-0.56-1.18-0.92-1.72c-0.37-0.55-0.78-1.06-1.25-1.52
			c-0.46-0.46-0.97-0.88-1.52-1.25c-0.54-0.36-1.12-0.67-1.72-0.92c-0.6-0.24-1.23-0.44-1.87-0.57c-1.29-0.26-2.62-0.26-3.91,0
			c-0.64,0.13-1.27,0.33-1.87,0.57c-0.61,0.25-1.19,0.56-1.73,0.92c-0.55,0.37-1.06,0.79-1.52,1.25c-0.46,0.46-0.88,0.97-1.24,1.52
			c-0.36,0.54-0.67,1.12-0.92,1.72c-0.25,0.61-0.44,1.24-0.57,1.87c-0.13,0.65-0.2,1.31-0.2,1.96c0,0.65,0.07,1.31,0.2,1.95
			s0.32,1.27,0.57,1.87c0.25,0.61,0.56,1.19,0.92,1.73c0.36,0.55,0.78,1.06,1.24,1.52c0.46,0.46,0.97,0.88,1.52,1.24
			c0.54,0.36,1.12,0.67,1.73,0.92c0.6,0.25,1.23,0.44,1.87,0.57c0.64,0.13,1.3,0.2,1.95,0.2c0.66,0,1.31-0.07,1.96-0.2
			c0.64-0.13,1.27-0.32,1.87-0.57c0.6-0.25,1.18-0.56,1.72-0.92c0.55-0.36,1.06-0.78,1.52-1.24c0.47-0.46,0.88-0.97,1.25-1.52
			c0.36-0.54,0.67-1.12,0.92-1.73c0.25-0.6,0.44-1.23,0.57-1.87c0.13-0.64,0.19-1.3,0.19-1.95S171.229,460.609,171.099,459.959z"/>
	</g>
</g>
<g>
</g>
<g>
</g>
<g>
</g>
<g>
</g>
<g>
</g>
<g>
</g>
<g>
</g>
<g>
</g>
<g>
</g>
<g>
</g>
<g>
</g>
<g>
</g>
<g>
</g>
<g>
</g>
<g>
</g>
</svg>
