<?xml version="1.0" standalone="no"?>
<!DOCTYPE svg PUBLIC "-//W3C//DTD SVG 20010904//EN"
  "http://www.w3.org/TR/2001/REC-SVG-20010904/DTD/svg10.dtd">
<svg version="1.0" xmlns="http://www.w3.org/2000/svg"
     width="400.000000pt" height="400.000000pt" viewBox="0 0 400.000000 400.000000"
     preserveAspectRatio="xMidYMid meet">
  <metadata>
    Created by potrace 1.11, written by Peter Selinger 2001-2013
  </metadata>
  <g transform="translate(0.000000,400.000000) scale(0.100000,-0.100000)"
     fill="#000000" stroke="none">
    <path d="M0 3820 c0 -137 3 -180 13 -181 91 -4 174 -27 180 -50 4 -14 29 -16
233 -18 191 -1 231 -4 244 -17 13 -14 12 -14 -13 -5 -17 7 -116 11 -243 11
-198 0 -215 1 -233 19 -24 24 -81 41 -138 41 l-43 0 0 -285 c0 -157 4 -285 8
-285 4 0 13 -13 19 -30 7 -20 18 -30 32 -30 13 0 26 -11 36 -30 14 -27 20 -30
63 -30 42 0 49 -4 64 -30 l17 -29 148 -1 c81 -1 198 0 258 1 61 1 128 3 151 3
25 0 47 -6 57 -16 9 -9 42 -31 72 -48 51 -29 175 -153 175 -175 0 -6 9 -16 21
-23 12 -8 18 -19 15 -28 -3 -8 -1 -14 4 -14 6 0 10 -8 10 -18 0 -11 8 -27 19
-36 17 -16 19 -15 26 16 4 18 6 47 5 65 -1 21 6 39 20 53 20 20 30 22 103 18
75 -3 86 -6 129 -38 44 -34 82 -99 77 -132 -4 -26 20 -69 38 -66 38 6 21 -61
-18 -74 -8 -3 -12 -44 -12 -128 0 -69 -4 -131 -10 -138 -5 -6 -7 -12 -3 -12 4
0 -1 -12 -10 -26 -11 -16 -17 -47 -18 -85 -1 -51 2 -61 22 -75 13 -9 21 -22
18 -30 -3 -7 -1 -16 3 -19 5 -3 5 -21 1 -41 -9 -37 -8 -38 57 -58 39 -12 39
-8 46 369 2 132 6 256 8 275 6 54 82 174 136 215 25 19 69 42 97 51 64 20 198
29 251 16 l40 -10 -40 -2 c-32 -1 -36 -3 -20 -10 11 -5 39 -9 63 -9 58 -1 133
-21 139 -37 2 -7 6 -19 7 -28 3 -24 15 -31 22 -12 8 21 -20 54 -61 72 -16 7
-23 13 -15 13 26 1 109 -54 143 -95 46 -52 102 -154 91 -162 -5 -4 -9 -18 -9
-32 0 -18 -6 -26 -22 -28 -29 -4 -31 -38 -3 -45 11 -3 20 -1 20 4 0 23 16 5
27 -28 9 -32 15 -129 17 -330 1 -24 5 -43 10 -43 4 0 6 -16 4 -35 -4 -39 5
-45 24 -16 11 17 13 18 23 4 12 -15 85 -32 116 -25 18 3 55 62 40 62 -23 0
-10 37 19 53 35 21 49 44 53 89 2 24 7 33 22 34 46 2 53 5 51 22 0 9 -4 19 -7
22 -3 3 -25 46 -48 95 -29 63 -57 104 -90 136 -32 30 -64 78 -96 140 -26 52
-53 101 -61 110 -17 19 -18 55 -1 66 16 10 314 12 350 2 26 -7 27 -6 27 32 0
24 4 38 10 34 5 -3 7 0 5 7 -3 8 6 25 20 38 14 13 25 27 25 31 0 18 -69 24
-226 22 l-163 -2 -31 30 c-20 20 -30 41 -30 60 0 28 2 29 48 29 50 0 72 12 72
40 0 9 11 23 25 30 34 18 32 25 -15 44 -22 9 -40 18 -40 20 0 8 54 -5 66 -15
8 -7 14 -6 19 1 3 5 15 10 25 10 10 0 27 11 38 25 21 27 94 45 106 26 5 -7 1
-8 -10 -4 -12 4 -15 3 -10 -5 4 -7 1 -12 -8 -12 -8 0 -28 -14 -45 -32 l-29
-32 25 -13 c15 -8 46 -18 70 -24 24 -6 43 -15 43 -19 0 -4 15 -10 34 -13 42
-7 126 -44 126 -56 0 -5 -35 4 -77 21 -43 17 -115 43 -161 59 -83 28 -83 28
-114 9 -18 -10 -35 -17 -40 -14 -4 3 -5 -2 -2 -10 10 -25 -40 -66 -81 -66 -19
0 -35 -2 -35 -5 0 -2 11 -15 24 -28 23 -23 32 -24 207 -32 194 -8 257 -7 271
1 5 3 13 17 19 31 11 30 34 25 34 -8 0 -23 107 -207 129 -221 11 -7 -2 -14
-39 -20 -18 -3 -20 -12 -23 -83 l-2 -80 30 55 c36 64 37 65 70 75 l25 7 -25
-28 c-17 -20 -19 -23 -4 -11 12 10 37 17 63 17 31 0 48 6 64 23 12 13 29 27
37 30 13 5 13 6 0 6 -9 1 -25 -6 -37 -14 -12 -8 -38 -17 -60 -20 l-38 -5 40
19 c22 10 40 24 40 31 0 21 72 38 135 32 47 -4 59 -10 84 -39 23 -27 26 -36
16 -48 -9 -11 -17 -12 -30 -5 -13 7 -21 7 -25 0 -3 -5 1 -10 9 -10 20 0 20
-21 0 -68 -9 -20 -17 -46 -20 -56 -2 -11 -8 -22 -13 -25 -5 -3 -25 -30 -45
-60 -20 -30 -29 -48 -20 -40 16 13 16 12 4 -8 -8 -12 -17 -20 -21 -17 -4 2
-11 -1 -15 -7 -5 -8 -3 -9 6 -4 7 4 11 4 9 -1 -3 -5 -18 -38 -36 -74 -110
-230 -107 -222 -76 -252 28 -26 76 -115 69 -126 -3 -5 0 -14 6 -22 8 -12 9
-11 4 4 -6 16 -4 17 9 6 8 -7 15 -17 15 -23 0 -6 18 -35 41 -64 22 -30 38 -61
35 -68 -3 -9 0 -12 9 -9 7 3 18 -4 24 -15 15 -26 14 -44 -1 -35 -7 4 -2 -7 11
-24 24 -35 37 -42 27 -16 -5 14 -4 15 9 4 9 -7 14 -19 11 -27 -3 -8 -2 -12 3
-8 12 7 51 -74 51 -106 0 -13 9 -30 20 -37 27 -16 26 -58 -2 -73 -30 -16 -273
-26 -264 -10 4 6 3 11 -3 11 -5 0 -11 -5 -13 -12 -3 -7 -14 -9 -31 -4 -15 3
-25 11 -22 16 3 5 0 7 -8 4 -19 -7 -100 77 -123 128 -10 23 -29 53 -41 66 -11
12 -29 39 -38 58 -9 19 -22 33 -28 31 -12 -4 -64 -86 -90 -143 -15 -32 -55
-67 -67 -59 -4 3 -13 -1 -19 -9 -9 -10 -8 -15 4 -20 22 -8 18 -34 -11 -63 -23
-23 -30 -25 -77 -19 -28 4 -57 12 -64 18 -7 6 -26 8 -43 6 -16 -3 -30 -1 -30
4 0 5 -8 4 -18 -1 -27 -14 -146 -12 -168 3 -16 12 -17 17 -5 42 8 16 15 37 16
46 1 9 9 27 18 40 64 88 91 133 93 153 4 37 29 76 96 150 35 38 57 66 51 61
-18 -10 -16 9 2 24 8 6 17 22 21 33 3 12 22 43 40 70 19 26 29 47 24 47 -6 0
-10 6 -10 14 0 17 -17 24 -47 18 -17 -3 -23 -11 -23 -32 0 -17 -13 -44 -35
-70 -19 -23 -35 -52 -35 -64 0 -12 -7 -31 -15 -42 -8 -12 -12 -23 -10 -26 2
-2 -31 -5 -74 -7 -44 -1 -82 2 -85 7 -8 14 -55 -9 -57 -28 -7 -66 -8 -90 -9
-124 0 -22 -9 -50 -21 -67 -11 -16 -16 -29 -10 -29 18 0 -58 -124 -97 -158
-41 -36 -131 -86 -140 -78 -3 3 -11 1 -18 -5 -19 -15 -74 -22 -74 -9 0 7 -6 8
-19 0 -26 -13 -61 -13 -61 1 0 8 -4 8 -15 -1 -14 -11 -55 -6 -55 8 0 4 -20 8
-44 8 -56 2 -137 25 -143 42 -3 6 -12 12 -20 12 -21 0 -117 96 -108 109 3 6 2
11 -4 11 -5 0 -13 10 -17 22 -4 13 -14 28 -22 34 -10 8 -16 30 -17 68 -1 31
-7 62 -13 68 -7 7 -12 17 -12 23 0 12 -58 32 -81 27 -22 -4 -31 -39 -13 -46
17 -7 18 -38 2 -54 -9 -9 -9 -12 1 -12 7 0 10 -4 6 -10 -3 -5 -6 -29 -7 -53
-1 -52 -19 -81 -46 -73 -11 4 -24 0 -32 -9 -10 -12 -10 -15 4 -15 9 0 16 -4
16 -9 0 -4 14 -22 30 -39 34 -36 38 -57 12 -71 -19 -10 -296 -10 -306 0 -3 3
-9 27 -12 53 -6 44 -4 50 26 81 26 26 28 33 14 32 -14 -2 -19 5 -19 25 1 14
-2 25 -6 22 -12 -7 -18 114 -19 341 -1 121 -2 234 -4 250 -2 17 -4 38 -5 48
-2 26 -21 11 -21 -16 1 -156 -3 -264 -11 -279 -7 -12 -6 -18 1 -18 8 0 9 -11
4 -32 -4 -18 -6 -52 -5 -75 1 -23 -2 -44 -8 -47 -5 -3 -7 -14 -4 -24 2 -11 -3
-37 -13 -58 -9 -21 -18 -49 -19 -60 -8 -55 -106 -164 -182 -202 -61 -30 -157
-53 -215 -50 -29 1 -78 -2 -108 -6 -51 -8 -59 -6 -95 19 -35 23 -47 26 -90 21
-34 -3 -43 -2 -30 4 16 7 17 9 3 9 -9 1 -32 24 -52 51 -36 49 -56 57 -56 21 0
-9 14 -27 30 -40 17 -12 28 -27 24 -32 -4 -6 -13 -4 -25 7 -18 16 -19 16 -26
-2 -17 -40 -28 -21 -28 43 1 50 5 67 18 75 18 10 23 53 8 63 -5 3 -12 -9 -14
-27 -3 -23 -4 -17 -5 20 -1 33 2 52 9 52 8 0 8 4 0 14 -6 8 -11 38 -11 67 0
30 -3 70 -8 89 -7 26 -9 10 -7 -65 2 -55 -1 -111 -5 -125 -5 -17 -9 9 -10 75
-1 55 -3 114 -5 130 -3 17 -2 39 2 50 l6 20 8 -20 c5 -12 7 7 6 50 0 58 -1 62
-5 20 l-4 -50 -15 40 c-21 55 -24 94 -11 135 6 20 12 137 14 280 2 135 4 250
4 255 0 6 -1 74 -4 153 -3 113 -7 147 -20 161 -9 10 -16 23 -16 29 0 8 -18 12
-50 12 -39 0 -53 4 -62 20 -7 11 -17 20 -21 20 -5 0 -15 6 -22 13 -48 42 -45
120 -45 -1055 0 -665 4 -1087 9 -1079 8 12 13 11 30 -10 12 -14 18 -32 15 -43
-4 -12 -2 -16 5 -12 8 5 11 -28 11 -113 0 -74 4 -121 10 -121 6 0 10 24 10 54
0 35 5 58 15 66 19 16 19 31 0 24 -12 -5 -15 4 -15 50 0 31 3 56 8 56 4 0 22
-14 40 -30 31 -29 43 -72 23 -84 -16 -10 -20 -56 -5 -56 10 0 14 -13 14 -41 0
-24 4 -38 10 -34 5 3 10 32 10 64 0 86 17 95 73 37 25 -25 50 -46 57 -48 15
-3 30 -14 85 -64 22 -20 57 -48 79 -62 21 -14 33 -28 27 -30 -6 -2 -11 -11
-11 -19 0 -11 7 -14 23 -10 22 6 58 -19 226 -158 l61 -50 -68 -3 c-37 -2 -71
-8 -77 -14 -7 -7 -7 -9 0 -6 6 3 48 3 95 -1 76 -5 85 -8 85 -26 0 -11 -10 -31
-22 -45 l-22 -25 27 -2 c15 -1 44 -2 65 -3 41 0 42 -2 26 -33 -12 -21 -11 -21
8 -4 19 16 21 16 37 -2 17 -18 17 -20 -1 -30 -16 -9 -15 -10 9 -11 20 0 26 4
22 15 -4 10 0 15 15 15 12 0 24 -7 27 -15 5 -13 180 -15 1485 -15 l1479 0 0
2000 0 2000 -717 0 c-638 0 -722 -2 -760 -16 -23 -9 -45 -24 -48 -34 -3 -10
-17 -21 -30 -24 -14 -4 -32 -17 -41 -31 -9 -14 -20 -25 -25 -25 -5 0 5 16 22
35 18 19 38 35 45 35 7 0 15 9 19 19 3 11 18 24 33 30 18 6 -391 10 -1235 10
l-1263 1 0 -180z m3331 126 c26 -28 2 -83 -43 -99 -21 -7 -24 -33 -5 -41 10
-5 10 -7 0 -12 -8 -3 -13 -25 -13 -52 0 -46 -20 -82 -46 -82 -9 0 -14 -21 -17
-67 l-3 -68 -2 73 c-2 57 1 72 12 72 34 0 46 30 46 111 0 67 3 79 17 79 41 0
68 55 39 79 -8 7 -12 21 -8 34 6 21 6 21 10 2 2 -11 8 -24 13 -29z m-1636 -6
c13 -5 14 -9 5 -9 -8 0 -24 4 -35 9 -13 5 -14 9 -5 9 8 0 24 -4 35 -9z m-67
-7 c-10 -2 -28 -2 -40 0 -13 2 -5 4 17 4 22 1 32 -1 23 -4z m-68 -6 c0 -2 -10
-12 -22 -23 l-23 -19 19 23 c18 21 26 27 26 19z m197 -12 c8 -9 13 -18 11 -21
-3 -2 -13 5 -23 16 -21 23 -11 27 12 5z m-271 -64 c-9 -10 -21 -32 -26 -47 -8
-27 -8 -28 -9 -5 -1 14 9 35 21 48 26 27 39 31 14 4z m874 15 c0 -2 -8 -10
-17 -17 -16 -13 -17 -12 -4 4 13 16 21 21 21 13z m-475 -66 c3 -5 2 -10 -4
-10 -5 0 -13 5 -16 10 -3 6 -2 10 4 10 5 0 13 -4 16 -10z m355 0 c-20 -13 -33
-13 -25 0 3 6 14 10 23 10 15 0 15 -2 2 -10z m-29 -44 c-6 -8 -23 -17 -36 -20
-13 -3 -27 -15 -30 -26 -3 -11 -11 -20 -16 -20 -19 0 12 40 49 64 39 25 53 26
33 2z m-764 -48 c-3 -8 -6 -5 -6 6 -1 11 2 17 5 13 3 -3 4 -12 1 -19z m-562
-207 c38 -6 23 -7 -60 -4 -60 3 -113 8 -117 12 -10 8 117 3 177 -8z m534 -35
l-36 -33 -119 4 c-164 6 -167 12 -6 11 132 -2 133 -2 160 25 14 15 29 27 32
27 3 0 -11 -16 -31 -34z m-424 4 c12 -13 34 -20 74 -23 l56 -3 -60 -2 c-50 -1
-65 3 -90 23 -20 17 -25 25 -14 25 9 0 24 -9 34 -20z m2168 13 c-7 -2 -13 -12
-13 -20 0 -9 -3 -14 -6 -10 -10 10 4 37 18 36 10 0 10 -2 1 -6z m-55 -60 c-21
-5 -24 -19 -6 -25 7 -3 6 -7 -5 -11 -12 -5 -17 -1 -17 12 0 22 9 31 29 30 13
-1 13 -2 -1 -6z m-95 -166 c3 -8 -1 -14 -9 -14 -15 0 -18 9 -7 20 9 9 10 9 16
-6z m-42 -87 c5 0 9 -4 9 -8 0 -5 -7 -9 -15 -9 -10 0 -15 9 -14 26 1 17 3 20
6 9 2 -10 9 -18 14 -18z m-2814 -266 c-3 -3 -12 -4 -19 -1 -8 3 -5 6 6 6 11 1
17 -2 13 -5z m3813 -40 c-12 -13 -11 -17 0 -24 8 -5 11 -12 8 -15 -4 -4 -17 3
-30 14 -19 18 -20 23 -8 31 8 5 18 6 22 4 4 -3 8 0 8 7 0 7 3 9 6 6 4 -4 1
-14 -6 -23z m-159 -67 c-9 -9 -10 -5 -7 13 6 36 8 37 13 16 3 -10 0 -23 -6
-29z m107 -8 c1 -51 -10 -43 -15 12 -3 24 0 39 5 35 5 -3 10 -24 10 -47z m2
-58 c0 -17 -18 -21 -24 -6 -3 9 0 15 9 15 8 0 15 -4 15 -9z m-135 -11 c-3 -6
1 -13 10 -16 12 -5 13 -9 4 -20 -15 -18 -53 -19 -45 -1 3 6 9 20 12 30 4 9 11
17 16 17 5 0 6 -5 3 -10z m-85 -4 c0 -3 -4 -8 -10 -11 -5 -3 -10 -1 -10 4 0 6
5 11 10 11 6 0 10 -2 10 -4z m255 -16 c3 -5 1 -10 -4 -10 -6 0 -11 5 -11 10 0
6 2 10 4 10 3 0 8 -4 11 -10z m-505 -14 c0 -3 -4 -8 -10 -11 -5 -3 -10 -1 -10
4 0 6 5 11 10 11 6 0 10 -2 10 -4z m-1212 -33 c-10 -2 -26 -2 -35 0 -10 3 -2
5 17 5 19 0 27 -2 18 -5z m592 -857 c0 -3 -4 -8 -10 -11 -5 -3 -10 -1 -10 4 0
6 5 11 10 11 6 0 10 -2 10 -4z m-2570 -306 c0 -5 -5 -10 -11 -10 -5 0 -7 5 -4
10 3 6 8 10 11 10 2 0 4 -4 4 -10z m65 -150 c-3 -5 -10 -10 -16 -10 -5 0 -9 5
-9 10 0 6 7 10 16 10 8 0 12 -4 9 -10z m1810 -301 c0 -8 -7 -14 -15 -14 -8 -1
-14 -6 -12 -13 3 -15 -24 -16 -34 -1 -8 13 35 50 51 45 6 -1 10 -9 10 -17z
m82 15 c-3 -3 -12 -4 -19 -1 -8 3 -5 6 6 6 11 1 17 -2 13 -5z m-437 -49 c0 -2
-10 -10 -22 -16 -21 -11 -22 -11 -9 4 13 16 31 23 31 12z m-892 -885 c11 -18
10 -20 -18 -20 -32 0 -37 9 -18 28 16 16 21 15 36 -8z"/>
    <path d="M505 2850 c-30 -8 -30 -8 8 -9 23 -1 36 3 32 9 -3 6 -7 9 -8 9 -1 -1
-15 -5 -32 -9z"/>
    <path d="M368 2843 c12 -2 30 -2 40 0 9 3 -1 5 -23 4 -22 0 -30 -2 -17 -4z"/>
    <path d="M544 2819 c-67 -35 -80 -46 -71 -55 6 -6 147 72 147 81 0 11 -20 4
-76 -26z"/>
    <path d="M653 2843 c9 -2 23 -2 30 0 6 3 -1 5 -18 5 -16 0 -22 -2 -12 -5z"/>
    <path d="M868 2813 c7 -3 16 -2 19 1 4 3 -2 6 -13 5 -11 0 -14 -3 -6 -6z"/>
    <path d="M913 2778 c4 -12 7 -26 7 -30 0 -16 18 -7 22 10 3 12 -2 24 -15 31
-18 12 -19 11 -14 -11z"/>
    <path d="M324 2775 c-10 -26 5 -67 24 -63 19 4 46 53 37 68 -10 16 -55 12 -61
-5z"/>
    <path d="M582 2759 c-72 -38 -111 -69 -95 -76 7 -2 23 -13 35 -23 19 -15 20
-20 9 -34 -8 -9 -11 -19 -8 -23 4 -3 9 1 12 9 5 13 13 14 46 5 33 -8 43 -7 59
8 11 10 20 31 20 47 0 16 7 42 15 59 30 57 -12 69 -93 28z"/>
    <path d="M823 2783 c4 -6 -14 -25 -42 -42 -48 -31 -91 -71 -76 -71 14 0 165
93 165 101 0 5 -4 9 -9 9 -5 0 -17 3 -27 7 -11 4 -15 3 -11 -4z"/>
    <path d="M425 2750 c-14 -15 -15 -20 -4 -20 25 0 45 18 33 30 -7 7 -16 5 -29
-10z"/>
    <path d="M255 2741 c-3 -5 -1 -12 5 -16 5 -3 10 1 10 9 0 18 -6 21 -15 7z"/>
    <path d="M885 2740 c3 -5 8 -10 11 -10 2 0 4 5 4 10 0 6 -5 10 -11 10 -5 0 -7
-4 -4 -10z"/>
    <path d="M980 2740 c0 -5 5 -10 11 -10 5 0 7 5 4 10 -3 6 -8 10 -11 10 -2 0
-4 -4 -4 -10z"/>
    <path d="M1000 2709 c0 -5 5 -7 10 -4 6 3 10 8 10 11 0 2 -4 4 -10 4 -5 0 -10
-5 -10 -11z"/>
    <path d="M267 2690 c3 -11 12 -20 19 -20 20 0 17 18 -5 29 -16 9 -18 8 -14 -9z"/>
    <path d="M925 2664 c9 -61 14 -74 31 -74 19 0 18 24 -1 40 -8 7 -15 16 -15 21
0 5 7 9 15 9 9 0 15 9 15 25 0 20 -5 25 -26 25 -26 0 -26 -1 -19 -46z"/>
    <path d="M3000 2691 c-24 -19 -24 -20 -5 -41 15 -16 16 -23 7 -29 -15 -9 19
-70 100 -181 26 -36 54 -74 62 -85 14 -20 14 -19 25 7 5 15 9 75 8 135 l-2
108 -35 6 c-46 7 -100 29 -100 40 0 5 5 9 10 9 6 0 10 5 10 11 0 5 -5 7 -10 4
-17 -11 -49 5 -43 21 7 18 3 18 -27 -5z"/>
    <path d="M350 2670 c0 -5 5 -10 11 -10 5 0 7 5 4 10 -3 6 -8 10 -11 10 -2 0
-4 -4 -4 -10z"/>
    <path d="M380 2666 c0 -18 30 -30 43 -17 5 5 6 14 3 20 -10 16 -46 13 -46 -3z"/>
    <path d="M846 2663 c-3 -4 -17 -8 -29 -10 -58 -8 -96 -40 -68 -57 13 -8 86 19
86 32 0 6 9 18 20 26 11 9 15 16 9 16 -6 0 -14 -3 -18 -7z"/>
    <path d="M1898 2641 c-31 -10 -76 -33 -99 -52 -40 -32 -99 -111 -99 -133 0 -6
13 11 29 37 39 67 109 122 173 137 58 14 95 30 68 29 -8 0 -41 -8 -72 -18z"/>
    <path d="M2002 2648 c6 -17 68 -53 68 -39 0 6 -12 17 -27 26 l-28 16 28 -6
c15 -3 27 -1 27 5 0 5 -16 10 -36 10 -24 0 -34 -4 -32 -12z"/>
    <path d="M467 2643 c-12 -11 -8 -23 8 -23 8 0 15 7 15 15 0 16 -12 20 -23 8z"/>
    <path d="M1298 2643 c17 -2 47 -2 65 0 17 2 3 4 -33 4 -36 0 -50 -2 -32 -4z"/>
    <path d="M2665 2625 c27 -7 52 -9 55 -5 3 5 23 10 45 12 22 2 -3 5 -55 5 l-95
1 50 -13z"/>
    <path d="M2840 2630 c-34 -7 -34 -7 -5 -8 17 0 41 4 55 8 33 11 0 11 -50 0z"/>
    <path d="M1054 2608 c3 -13 6 -30 6 -38 1 -12 3 -11 11 2 7 12 6 24 -1 38 -14
27 -24 25 -16 -2z"/>
    <path d="M1267 2623 c-3 -4 -3 -20 0 -36 7 -33 33 -36 33 -3 0 24 -24 53 -33
39z"/>
    <path d="M3524 2615 c-18 -14 -18 -14 9 -15 15 0 27 4 27 9 0 6 19 12 43 14
42 3 42 4 -9 5 -31 1 -58 -4 -70 -13z"/>
    <path d="M267 2614 c-12 -12 3 -22 23 -17 11 3 17 9 14 14 -6 10 -28 12 -37 3z"/>
    <path d="M1420 2606 c0 -10 8 -16 22 -16 12 0 19 1 17 3 -2 1 -12 9 -21 16
-15 12 -18 11 -18 -3z"/>
    <path d="M2146 2604 c-4 -11 -1 -14 11 -12 9 2 18 9 21 16 6 18 -25 15 -32 -4z"/>
    <path d="M322 2601 c4 -13 18 -16 19 -4 0 4 -5 9 -11 12 -7 2 -11 -2 -8 -8z"/>
    <path d="M450 2600 c0 -5 5 -10 10 -10 6 0 10 5 10 10 0 6 -4 10 -10 10 -5 0
-10 -4 -10 -10z"/>
    <path d="M1020 2594 c0 -10 5 -26 10 -34 8 -11 9 -7 4 15 -8 37 -14 45 -14 19z"/>
    <path d="M1935 2600 c-3 -5 1 -10 9 -10 9 0 16 5 16 10 0 6 -4 10 -9 10 -6 0
-13 -4 -16 -10z"/>
    <path d="M2250 2592 c0 -5 -25 -25 -55 -43 -49 -29 -72 -59 -46 -59 17 0 136
85 134 95 -3 13 -33 19 -33 7z"/>
    <path d="M2684 2586 c11 -9 27 -16 35 -16 21 0 2 16 -29 24 -24 7 -24 6 -6 -8z"/>
    <path d="M390 2575 c-7 -8 -10 -18 -8 -21 10 -9 59 8 55 20 -6 18 -33 18 -47
1z"/>
    <path d="M2610 2586 c0 -2 16 -30 35 -62 43 -71 47 -60 5 14 -26 45 -40 62
-40 48z"/>
    <path d="M1360 2570 c0 -5 9 -10 20 -10 11 0 20 5 20 10 0 6 -9 10 -20 10 -11
0 -20 -4 -20 -10z"/>
    <path d="M1898 2573 c-10 -2 -18 -8 -19 -11 0 -4 -2 -23 -5 -42 -12 -91 -16
-85 56 -84 36 1 85 6 110 13 43 11 45 13 46 49 1 20 0 29 -3 20 -7 -26 -23
-22 -23 5 0 39 -30 57 -91 56 -30 -1 -62 -3 -71 -6z"/>
    <path d="M2070 2571 c0 -6 5 -13 10 -16 6 -3 10 1 10 9 0 9 -4 16 -10 16 -5 0
-10 -4 -10 -9z"/>
    <path d="M2745 2567 c-19 -7 -25 -16 -25 -36 0 -31 62 -132 104 -170 14 -14
43 -54 63 -90 49 -90 81 -131 101 -131 13 0 14 2 4 8 -17 12 -6 39 35 82 18
19 33 43 33 53 0 24 -36 57 -63 57 -26 0 -47 17 -47 38 0 8 -11 27 -25 44 -31
37 -31 53 0 82 22 21 23 24 10 44 -13 17 -27 21 -90 24 -42 2 -87 -1 -100 -5z"/>
    <path d="M2986 2566 c3 -8 13 -17 22 -21 13 -5 13 -2 -3 15 -21 24 -26 25 -19
6z"/>
    <path d="M298 2558 c-39 -14 -36 -31 5 -23 41 9 49 14 42 26 -7 11 -11 11 -47
-3z"/>
    <path d="M670 2560 c19 -13 30 -13 30 0 0 6 -10 10 -22 10 -19 0 -20 -2 -8
-10z"/>
    <path d="M3514 2555 c25 -19 36 -19 36 0 0 10 -10 15 -27 15 -27 -1 -27 -1 -9
-15z"/>
    <path d="M790 2538 c0 -20 1 -21 20 -3 11 10 20 20 20 22 0 1 -9 3 -20 3 -14
0 -20 -7 -20 -22z"/>
    <path d="M1810 2514 c0 -27 4 -43 10 -39 6 3 10 24 10 46 0 21 -4 39 -10 39
-5 0 -10 -21 -10 -46z"/>
    <path d="M2380 2556 c0 -4 7 -14 15 -22 8 -9 15 -11 15 -6 0 5 -7 15 -15 22
-8 7 -15 9 -15 6z"/>
    <path d="M1395 2540 c-3 -5 -2 -10 4 -10 5 0 13 5 16 10 3 6 2 10 -4 10 -5 0
-13 -4 -16 -10z"/>
    <path d="M425 2530 c-7 -12 2 -30 16 -30 12 0 12 27 0 35 -5 3 -12 1 -16 -5z"/>
    <path d="M730 2532 c0 -14 11 -21 26 -15 8 3 11 9 8 14 -7 11 -34 12 -34 1z"/>
    <path d="M321 2514 c0 -11 3 -14 6 -6 3 7 2 16 -1 19 -3 4 -6 -2 -5 -13z"/>
    <path d="M2330 2492 c0 -47 23 -83 41 -65 10 10 9 17 -6 33 -16 18 -16 20 -1
26 27 10 20 44 -9 44 -22 0 -25 -4 -25 -38z"/>
    <path d="M3041 2495 c12 -22 26 -44 32 -50 15 -16 -20 48 -38 70 -9 11 -7 2 6
-20z"/>
    <path d="M3430 2520 c-13 -9 -13 -12 3 -21 33 -19 18 -66 -41 -131 -25 -28
-25 -26 4 -118 3 -9 14 2 31 30 14 25 34 54 44 65 22 25 89 140 89 153 0 9
-12 13 -87 27 -16 3 -35 1 -43 -5z"/>
    <path d="M261 2504 c0 -11 3 -14 6 -6 3 7 2 16 -1 19 -3 4 -6 -2 -5 -13z"/>
    <path d="M385 2510 c3 -5 8 -10 11 -10 2 0 4 5 4 10 0 6 -5 10 -11 10 -5 0 -7
-4 -4 -10z"/>
    <path d="M581 2505 c-4 -5 -8 -26 -10 -46 -1 -19 -4 -44 -6 -55 -2 -10 -4 -28
-4 -40 -1 -12 -12 -38 -26 -58 -31 -46 -32 -112 0 -111 14 0 20 -6 19 -22 0
-13 3 -23 7 -23 4 0 6 -42 4 -92 -2 -51 -4 -145 -4 -208 0 -63 0 -126 0 -139
-1 -14 5 -28 11 -33 21 -13 82 -9 104 7 28 19 44 104 43 220 -2 177 -1 281 1
360 2 44 0 105 -5 135 -4 30 -6 56 -4 57 2 2 -6 10 -19 19 -13 9 -21 21 -19
28 6 14 -81 15 -92 1z"/>
    <path d="M1310 2500 c-20 -20 -21 -31 -19 -260 1 -211 7 -271 21 -228 3 8 12
1 22 -15 18 -26 46 -37 46 -17 0 6 -12 53 -26 105 -25 90 -26 98 -13 157 11
49 19 65 41 77 31 18 35 43 13 81 -8 14 -14 39 -15 57 0 65 -30 83 -70 43z"/>
    <path d="M788 2494 c-26 -13 -38 -34 -20 -34 12 1 57 38 52 43 -3 3 -17 -1
-32 -9z"/>
    <path d="M900 2494 c0 -8 5 -12 10 -9 6 3 10 10 10 16 0 5 -4 9 -10 9 -5 0
-10 -7 -10 -16z"/>
    <path d="M3352 2498 c-15 -19 -52 -96 -52 -108 0 -5 13 -10 29 -10 31 0 41 14
41 61 0 16 9 38 20 49 l20 20 -24 0 c-13 0 -28 -6 -34 -12z"/>
    <path d="M2260 2490 c-8 -5 -11 -12 -7 -16 4 -4 13 -2 19 4 15 15 7 24 -12 12z"/>
    <path d="M342 2483 c-23 -9 -32 -52 -25 -128 5 -68 8 -75 27 -75 65 1 89 33
37 51 -23 8 -28 15 -23 31 3 14 1 19 -6 14 -7 -4 -12 -3 -12 3 0 13 49 51 66
51 28 0 22 19 -12 39 -19 12 -36 21 -37 20 -1 0 -8 -3 -15 -6z"/>
    <path d="M420 2480 c0 -5 5 -10 10 -10 6 0 10 5 10 10 0 6 -4 10 -10 10 -5 0
-10 -4 -10 -10z"/>
    <path d="M975 2479 c-4 -6 -5 -13 -2 -16 7 -7 27 6 27 18 0 12 -17 12 -25 -2z"/>
    <path d="M2910 2476 c0 -11 75 -37 95 -34 20 3 20 3 0 14 -23 13 -95 28 -95
20z"/>
    <path d="M3400 2460 c0 -24 15 -27 24 -4 9 22 8 24 -9 24 -8 0 -15 -9 -15 -20z"/>
    <path d="M796 2453 c-4 -9 -2 -21 4 -27 7 -7 10 -2 10 17 0 31 -5 34 -14 10z"/>
    <path d="M843 2460 c-23 -9 -29 -21 -17 -33 10 -9 54 15 54 30 0 15 -6 15 -37
3z"/>
    <path d="M1153 2444 c-10 -22 -10 -23 13 -7 28 18 28 19 11 26 -7 2 -18 -6
-24 -19z"/>
    <path d="M1416 2461 c-3 -5 1 -11 9 -14 9 -4 12 -1 8 9 -6 16 -10 17 -17 5z"/>
    <path d="M2433 2455 c-28 -12 -29 -21 -3 -28 11 -3 20 -11 20 -17 0 -7 -7 -10
-15 -6 -11 4 -15 -2 -15 -25 0 -27 3 -30 23 -23 12 3 22 7 23 8 0 0 -2 24 -5
51 -6 47 -7 49 -28 40z"/>
    <path d="M1079 2443 c-13 -16 -12 -17 4 -4 9 7 17 15 17 17 0 8 -8 3 -21 -13z"/>
    <path d="M2195 2451 c-10 -17 11 -21 31 -6 18 14 18 14 -3 15 -12 0 -24 -4
-28 -9z"/>
    <path d="M2680 2454 c0 -12 70 -110 93 -130 13 -12 38 -47 56 -78 45 -78 48
-70 6 14 -19 39 -41 70 -48 70 -14 0 -57 51 -81 98 -15 29 -26 40 -26 26z"/>
    <path d="M1727 2415 c-19 -39 -21 -55 -9 -55 8 0 42 68 42 83 0 19 -18 3 -33
-28z"/>
    <path d="M1800 2435 c0 -8 4 -15 9 -15 5 0 11 7 15 15 3 9 0 15 -9 15 -8 0
-15 -7 -15 -15z"/>
    <path d="M2127 2443 c-12 -11 -8 -23 8 -23 8 0 15 7 15 15 0 16 -12 20 -23 8z"/>
    <path d="M253 2375 c0 -38 2 -53 4 -32 2 20 2 52 0 70 -2 17 -4 1 -4 -38z"/>
    <path d="M947 2434 c-3 -5 -8 -26 -12 -47 -8 -40 2 -48 27 -19 13 14 13 22 3
46 -7 16 -15 25 -18 20z"/>
    <path d="M1691 2433 c-1 -6 -4 -20 -7 -30 -5 -17 -5 -17 6 0 6 10 9 23 6 30
-3 9 -5 9 -5 0z"/>
    <path d="M2290 2430 c0 -5 5 -10 10 -10 6 0 10 5 10 10 0 6 -4 10 -10 10 -5 0
-10 -4 -10 -10z"/>
    <path d="M3040 2430 c0 -18 28 -63 65 -105 25 -29 26 -29 19 -5 -4 14 -15 36
-26 50 -54 71 -57 75 -58 60z"/>
    <path d="M1005 2410 c3 -5 11 -10 16 -10 6 0 7 5 4 10 -3 6 -11 10 -16 10 -6
0 -7 -4 -4 -10z"/>
    <path d="M2010 2410 c0 -5 5 -10 10 -10 6 0 10 5 10 10 0 6 -4 10 -10 10 -5 0
-10 -4 -10 -10z"/>
    <path d="M475 2400 c-3 -5 -1 -10 4 -10 6 0 11 5 11 10 0 6 -2 10 -4 10 -3 0
-8 -4 -11 -10z"/>
    <path d="M2080 2400 l-35 -7 36 -2 c50 -2 82 -42 99 -124 6 -32 8 -35 9 -14 1
15 -6 44 -14 64 -19 45 -19 43 7 43 12 0 18 3 14 8 -4 4 -18 7 -29 7 -13 0
-22 6 -22 15 0 17 -17 20 -65 10z"/>
    <path d="M385 2390 c-8 -13 4 -32 16 -25 12 8 12 35 0 35 -6 0 -13 -4 -16 -10z"/>
    <path d="M1176 2384 c-5 -14 -4 -15 9 -4 17 14 19 20 6 20 -5 0 -12 -7 -15
-16z"/>
    <path d="M2220 2384 c0 -9 5 -14 12 -12 18 6 21 28 4 28 -9 0 -16 -7 -16 -16z"/>
    <path d="M2340 2386 c0 -14 21 -26 46 -26 8 0 14 9 14 20 0 16 -7 20 -30 20
-19 0 -30 -5 -30 -14z"/>
    <path d="M3375 2390 c3 -5 10 -10 16 -10 5 0 9 5 9 10 0 6 -7 10 -16 10 -8 0
-12 -4 -9 -10z"/>
    <path d="M1810 2375 c12 -15 169 -31 196 -21 35 13 -3 24 -104 29 -85 4 -101
3 -92 -8z"/>
    <path d="M2972 2378 c6 -18 28 -21 28 -4 0 9 -7 16 -16 16 -9 0 -14 -5 -12
-12z"/>
    <path d="M860 2350 c0 -20 5 -30 15 -30 16 0 19 17 9 44 -10 26 -24 18 -24
-14z"/>
    <path d="M1440 2365 c0 -2 10 -10 23 -16 20 -11 21 -11 8 4 -13 16 -31 23 -31
12z"/>
    <path d="M2042 2362 c-23 -15 -34 -132 -34 -362 -1 -220 4 -282 24 -307 12
-14 86 -17 106 -5 7 5 13 29 13 58 1 27 8 64 15 83 8 19 11 43 8 54 -4 12 -6
86 -6 166 1 153 -10 246 -34 293 -11 22 -21 28 -47 28 -17 0 -38 -4 -45 -8z"/>
    <path d="M804 2350 c-21 -8 -41 -40 -25 -40 13 0 57 37 51 43 -3 3 -14 1 -26
-3z"/>
    <path d="M1070 2350 c0 -5 5 -10 10 -10 6 0 10 5 10 10 0 6 -4 10 -10 10 -5 0
-10 -4 -10 -10z"/>
    <path d="M1790 2350 c0 -5 5 -10 10 -10 6 0 10 5 10 10 0 6 -4 10 -10 10 -5 0
-10 -4 -10 -10z"/>
    <path d="M2310 2345 c0 -8 5 -15 10 -15 6 0 10 7 10 15 0 8 -4 15 -10 15 -5 0
-10 -7 -10 -15z"/>
    <path d="M2204 2336 c-29 -21 -10 -30 25 -11 17 8 31 18 31 20 0 11 -37 4 -56
-9z"/>
    <path d="M285 2330 c-3 -5 -1 -10 4 -10 6 0 11 5 11 10 0 6 -2 10 -4 10 -3 0
-8 -4 -11 -10z"/>
    <path d="M478 2334 c-5 -4 -8 -19 -8 -33 1 -23 2 -24 11 -8 11 19 9 53 -3 41z"/>
    <path d="M2377 2333 c-4 -3 -7 -13 -7 -21 0 -12 3 -12 15 -2 8 7 15 16 15 21
0 11 -14 12 -23 2z"/>
    <path d="M3293 2324 c-8 -21 13 -42 28 -27 13 13 5 43 -11 43 -6 0 -13 -7 -17
-16z"/>
    <path d="M1030 2320 c-8 -5 -12 -11 -9 -14 2 -3 11 -1 19 4 8 5 12 11 9 14 -2
3 -11 1 -19 -4z"/>
    <path d="M1666 2313 c-6 -14 -5 -15 5 -6 7 7 10 15 7 18 -3 3 -9 -2 -12 -12z"/>
    <path d="M1750 2320 c0 -5 7 -10 15 -10 8 0 15 5 15 10 0 6 -7 10 -15 10 -8 0
-15 -4 -15 -10z"/>
    <path d="M2248 2308 c-16 -5 -28 -14 -28 -20 0 -6 6 -8 14 -5 8 3 16 1 18 -5
5 -14 48 12 48 29 0 15 -14 15 -52 1z"/>
    <path d="M1378 2293 c7 -3 16 -2 19 1 4 3 -2 6 -13 5 -11 0 -14 -3 -6 -6z"/>
    <path d="M1730 2279 c0 -26 10 -29 64 -17 26 5 50 8 52 5 3 -2 13 -27 23 -55
24 -66 15 -75 -73 -70 -70 3 -76 -1 -76 -47 0 -47 6 -51 76 -47 55 4 70 1 94
-17 16 -11 32 -21 35 -21 9 0 6 37 -7 85 -11 39 -10 49 5 74 10 17 17 50 17
80 l0 52 -105 -2 c-93 -2 -105 -4 -105 -20z"/>
    <path d="M2344 2254 c-8 -33 -7 -44 2 -44 21 0 35 27 28 54 -10 41 -19 38 -30
-10z"/>
    <path d="M2407 2293 c-10 -9 -8 -43 2 -43 5 0 14 6 20 14 8 10 8 16 -2 25 -8
6 -17 8 -20 4z"/>
    <path d="M3250 2280 c11 -21 40 -17 40 6 0 8 -10 14 -25 14 -22 0 -24 -3 -15
-20z"/>
    <path d="M251 2264 c0 -11 3 -14 6 -6 3 7 2 16 -1 19 -3 4 -6 -2 -5 -13z"/>
    <path d="M910 2271 c-14 -4 -26 -15 -28 -24 -5 -24 13 -21 44 8 28 26 26 28
-16 16z"/>
    <path d="M3155 2271 c-3 -6 -17 -11 -31 -11 -13 0 -24 -4 -24 -8 0 -11 59 -2
66 10 3 5 4 12 1 14 -3 3 -8 1 -12 -5z"/>
    <path d="M3317 2273 c-12 -12 -7 -31 10 -37 25 -10 36 8 15 27 -10 9 -22 14
-25 10z"/>
    <path d="M1659 2203 c-3 -55 -1 -70 8 -60 8 8 9 31 4 72 l-7 60 -5 -72z"/>
    <path d="M2440 2250 c0 -5 12 -10 26 -10 14 0 23 4 19 10 -3 6 -15 10 -26 10
-10 0 -19 -4 -19 -10z"/>
    <path d="M1700 2234 c0 -8 5 -12 10 -9 6 3 10 10 10 16 0 5 -4 9 -10 9 -5 0
-10 -7 -10 -16z"/>
    <path d="M412 2228 c-5 -7 -13 -23 -16 -35 -6 -18 -3 -23 11 -22 10 0 27 4 38
9 19 8 19 8 -5 18 l-25 10 28 11 c15 6 27 13 27 16 0 11 -48 5 -58 -7z"/>
    <path d="M3213 2232 c-6 -4 -17 -21 -26 -37 -8 -17 -24 -38 -34 -48 -25 -22
-109 -38 -141 -26 -29 11 -28 8 12 -86 31 -73 32 -96 6 -120 -40 -36 -60 -83
-70 -159 -5 -42 -7 -89 -4 -105 l6 -29 30 18 c25 15 35 16 55 7 20 -9 28 -6
56 20 19 18 48 33 72 38 51 8 85 30 85 55 0 27 15 33 53 22 17 -6 49 -13 70
-17 45 -7 47 4 10 58 -25 36 -29 38 -65 32 -42 -8 -78 13 -78 44 0 34 56 168
87 209 18 24 33 47 33 52 0 5 3 16 7 26 5 14 2 16 -17 11 -13 -3 -39 1 -59 9
-68 29 -78 32 -88 26z m-23 -251 c14 -26 -4 -65 -37 -80 -56 -25 -100 49 -51
83 31 22 75 20 88 -3z"/>
    <path d="M3166 1971 c-4 -7 -5 -15 -2 -18 9 -9 19 4 14 18 -4 11 -6 11 -12 0z"/>
    <path d="M3110 1952 c0 -5 7 -16 16 -23 14 -12 16 -11 13 5 -4 20 -29 35 -29
18z"/>
    <path d="M345 2223 c-55 -7 -73 -13 -78 -26 -4 -11 4 -12 46 -4 29 5 59 16 67
23 8 8 10 13 5 13 -6 -1 -23 -4 -40 -6z"/>
    <path d="M1380 2220 c0 -5 7 -10 15 -10 8 0 15 5 15 10 0 6 -7 10 -15 10 -8 0
-15 -4 -15 -10z"/>
    <path d="M800 2210 c-8 -5 -12 -12 -9 -15 8 -8 39 5 39 16 0 11 -11 11 -30 -1z"/>
    <path d="M1778 2209 c-18 -10 -25 -39 -10 -39 4 1 21 12 37 25 26 21 27 25 10
25 -11 0 -28 -5 -37 -11z"/>
    <path d="M2218 2208 c-16 -5 -28 -16 -28 -24 0 -12 5 -12 32 -1 17 7 33 18 36
25 4 14 -3 14 -40 0z"/>
    <path d="M2461 2188 c5 -18 9 -34 9 -35 0 -2 -9 -3 -20 -3 -14 0 -21 -9 -26
-37 -4 -21 -12 -45 -19 -53 -13 -15 -9 -110 4 -110 8 0 31 105 31 143 0 14 5
29 11 33 8 5 10 -6 5 -37 -7 -52 5 -79 27 -61 8 7 12 23 9 42 -3 19 0 30 7 30
7 0 9 5 4 13 -4 6 -9 27 -10 46 -3 46 -10 61 -27 61 -12 0 -13 -6 -5 -32z"/>
    <path d="M3110 2189 c0 -11 5 -17 10 -14 6 3 10 13 10 21 0 8 -4 14 -10 14 -5
0 -10 -9 -10 -21z"/>
    <path d="M1475 2191 c-3 -5 -1 -12 5 -16 5 -3 10 1 10 9 0 18 -6 21 -15 7z"/>
    <path d="M2362 2165 c-66 -31 -91 -55 -59 -55 23 0 147 71 142 81 -8 12 0 14
-83 -26z"/>
    <path d="M3048 2184 c-26 -13 -38 -34 -20 -34 12 1 57 38 52 43 -3 3 -17 -1
-32 -9z"/>
    <path d="M1366 2182 c-3 -4 4 -16 15 -26 20 -16 20 -16 17 5 -3 24 -22 36 -32
21z"/>
    <path d="M1425 2180 c-3 -5 -1 -10 4 -10 6 0 11 5 11 10 0 6 -2 10 -4 10 -3 0
-8 -4 -11 -10z"/>
    <path d="M1700 2170 c0 -5 5 -10 10 -10 6 0 10 5 10 10 0 6 -4 10 -10 10 -5 0
-10 -4 -10 -10z"/>
    <path d="M1850 2165 c0 -8 5 -15 10 -15 6 0 10 7 10 15 0 8 -4 15 -10 15 -5 0
-10 -7 -10 -15z"/>
    <path d="M270 2163 c0 -5 7 -16 14 -26 14 -18 16 -18 40 -2 30 20 36 41 6 23
-15 -10 -22 -10 -32 0 -13 13 -28 16 -28 5z"/>
    <path d="M831 2154 c0 -11 3 -14 6 -6 3 7 2 16 -1 19 -3 4 -6 -2 -5 -13z"/>
    <path d="M493 2129 c-2 -20 2 -29 10 -26 7 2 10 13 9 23 -6 33 -17 34 -19 3z"/>
    <path d="M890 2148 c0 -5 65 -48 73 -48 1 0 2 13 2 28 0 26 -3 28 -37 27 -21
0 -38 -3 -38 -7z"/>
    <path d="M1022 2148 c-7 -7 -11 -30 -11 -52 1 -26 3 -32 6 -16 2 14 7 32 10
40 7 18 12 40 9 40 -1 0 -7 -5 -14 -12z"/>
    <path d="M1075 2151 c-3 -5 -1 -12 5 -16 12 -7 30 2 30 16 0 12 -27 12 -35 0z"/>
    <path d="M2193 2125 c0 -22 2 -30 4 -17 2 12 2 30 0 40 -3 9 -5 -1 -4 -23z"/>
    <path d="M370 2126 c0 -9 5 -16 10 -16 6 0 10 4 10 9 0 6 -4 13 -10 16 -5 3
-10 -1 -10 -9z"/>
    <path d="M406 2105 l7 -40 -21 19 c-19 16 -22 17 -28 3 -9 -26 0 -62 17 -65
41 -8 65 64 34 104 -14 18 -15 16 -9 -21z m-16 -55 c0 -5 -2 -10 -4 -10 -3 0
-8 5 -11 10 -3 6 -1 10 4 10 6 0 11 -4 11 -10z"/>
    <path d="M1950 2126 c0 -24 17 -28 23 -6 3 13 0 20 -9 20 -8 0 -14 -6 -14 -14z"/>
    <path d="M855 2120 c3 -5 11 -10 16 -10 6 0 7 5 4 10 -3 6 -11 10 -16 10 -6 0
-7 -4 -4 -10z"/>
    <path d="M2390 2110 c0 -5 5 -10 11 -10 5 0 7 5 4 10 -3 6 -8 10 -11 10 -2 0
-4 -4 -4 -10z"/>
    <path d="M927 2103 c-4 -3 -7 -11 -7 -17 0 -6 5 -5 12 2 6 6 9 14 7 17 -3 3
-9 2 -12 -2z"/>
    <path d="M810 2058 c0 -24 7 -52 15 -62 19 -25 19 -59 1 -94 -8 -16 -16 -56
-17 -91 -2 -51 1 -65 15 -73 17 -10 102 -6 164 7 20 5 38 3 47 -5 21 -17 35
-3 35 36 0 39 -6 41 -90 21 -65 -16 -87 -12 -69 9 9 12 7 22 -14 51 -32 44
-23 70 26 75 24 2 33 8 35 25 5 32 28 49 47 33 8 -7 15 -21 15 -31 0 -20 35
-44 50 -34 11 7 14 135 4 135 -3 0 -16 -8 -29 -18 -18 -14 -34 -17 -88 -12
-57 5 -71 10 -100 38 -18 17 -36 32 -40 32 -4 0 -7 -19 -7 -42z"/>
    <path d="M1658 2038 c-1 -35 0 -83 3 -108 4 -34 6 -22 7 47 1 57 6 93 13 95 7
2 6 8 -4 16 -13 11 -16 5 -19 -50z"/>
    <path d="M2233 2093 c-7 -2 -13 -11 -13 -19 0 -12 4 -12 20 -4 32 17 26 37 -7
23z"/>
    <path d="M1410 2066 c0 -14 5 -26 10 -26 6 0 10 9 10 19 0 11 -4 23 -10 26 -6
4 -10 -5 -10 -19z"/>
    <path d="M2295 2080 c-3 -5 -1 -10 4 -10 6 0 11 5 11 10 0 6 -2 10 -4 10 -3 0
-8 -4 -11 -10z"/>
    <path d="M910 2060 c0 -5 5 -10 10 -10 6 0 10 5 10 10 0 6 -4 10 -10 10 -5 0
-10 -4 -10 -10z"/>
    <path d="M480 2020 c-8 -25 -18 -48 -23 -51 -6 -4 -3 -16 5 -28 8 -11 18 -18
21 -14 18 17 4 -47 -14 -68 -17 -19 -20 -32 -15 -66 3 -26 2 -43 -4 -43 -6 0
-10 7 -10 15 0 8 -7 15 -15 15 -16 0 -17 -11 -5 -50 6 -19 8 -20 9 -6 1 12 6
16 16 12 18 -6 21 0 30 67 5 39 9 46 20 37 9 -8 11 -20 5 -40 -8 -29 -4 -43
11 -34 12 7 11 188 0 200 -6 5 -11 29 -13 54 l-3 45 -15 -45z"/>
    <path d="M2250 2045 c0 -8 5 -15 10 -15 6 0 10 7 10 15 0 8 -4 15 -10 15 -5 0
-10 -7 -10 -15z"/>
    <path d="M2183 1982 c0 -40 4 -75 9 -78 10 -6 9 45 -1 106 -7 41 -8 38 -8 -28z"/>
    <path d="M2303 2038 c-7 -12 7 -28 24 -28 12 0 13 -3 4 -13 -6 -8 -8 -17 -4
-20 11 -12 23 -7 23 9 0 8 5 12 10 9 6 -4 10 6 10 22 0 25 -4 28 -31 28 -17 0
-33 -3 -36 -7z"/>
    <path d="M3315 2030 c4 -6 11 -8 16 -5 14 9 11 15 -7 15 -8 0 -12 -5 -9 -10z"/>
    <path d="M1421 2014 c0 -11 3 -14 6 -6 3 7 2 16 -1 19 -3 4 -6 -2 -5 -13z"/>
    <path d="M1768 2020 c-22 -64 -28 -92 -28 -128 0 -23 -4 -42 -10 -42 -5 0 -10
25 -10 55 0 53 -10 69 -27 43 -4 -7 -6 -24 -4 -37 1 -13 -3 -28 -11 -32 -9 -6
-10 -11 -2 -16 6 -5 11 -25 12 -46 2 -42 8 -57 24 -57 7 0 8 13 5 35 -5 29 -3
35 13 35 12 0 20 10 24 35 4 19 13 41 21 49 12 11 13 26 7 68 -5 29 -11 46
-14 38z"/>
    <path d="M1840 2020 c0 -5 -9 -18 -21 -29 -31 -28 -18 -60 23 -58 37 2 48 22
18 32 -12 4 -17 11 -13 18 12 19 14 47 3 47 -6 0 -10 -4 -10 -10z"/>
    <path d="M326 2011 c-4 -6 -1 -30 6 -53 l13 -43 3 44 c3 44 -9 73 -22 52z"/>
    <path d="M2270 2010 c0 -5 7 -10 16 -10 8 0 12 5 9 10 -3 6 -10 10 -16 10 -5
0 -9 -4 -9 -10z"/>
    <path d="M1115 2000 c-3 -5 -1 -10 4 -10 6 0 11 5 11 10 0 6 -2 10 -4 10 -3 0
-8 -4 -11 -10z"/>
    <path d="M1885 2000 c3 -5 8 -10 11 -10 2 0 4 5 4 10 0 6 -5 10 -11 10 -5 0
-7 -4 -4 -10z"/>
    <path d="M280 1965 c0 -8 4 -15 10 -15 5 0 7 7 4 15 -4 8 -8 15 -10 15 -2 0
-4 -7 -4 -15z"/>
    <path d="M1885 1970 c3 -5 10 -10 16 -10 5 0 9 5 9 10 0 6 -7 10 -16 10 -8 0
-12 -4 -9 -10z"/>
    <path d="M3311 1937 c-12 -26 -21 -53 -19 -59 7 -20 50 61 45 84 -3 19 -7 15
-26 -25z"/>
    <path d="M782 1950 c0 -14 2 -19 5 -12 2 6 2 18 0 25 -3 6 -5 1 -5 -13z"/>
    <path d="M1292 1954 c3 -17 21 -21 26 -6 1 5 -4 12 -13 16 -11 4 -15 1 -13
-10z"/>
    <path d="M2250 1950 c0 -11 5 -39 12 -64 10 -37 9 -49 -6 -80 -11 -23 -16 -54
-14 -84 l3 -47 100 2 c97 2 100 3 100 25 0 20 -4 23 -35 19 -84 -9 -82 -10
-96 44 -7 27 -11 51 -9 54 3 2 5 -1 5 -7 0 -7 5 -12 11 -12 6 0 9 6 6 14 -10
24 88 37 110 15 15 -15 27 40 18 81 -6 25 -9 28 -25 20 -10 -6 -42 -10 -70
-10 -41 0 -56 5 -76 25 -30 30 -34 31 -34 5z"/>
    <path d="M2980 1963 c0 -5 5 -15 10 -23 8 -12 10 -11 10 8 0 12 -4 22 -10 22
-5 0 -10 -3 -10 -7z"/>
    <path d="M985 1951 c-3 -5 -1 -12 5 -16 5 -3 10 1 10 9 0 18 -6 21 -15 7z"/>
    <path d="M2315 1950 c3 -5 10 -10 16 -10 5 0 9 5 9 10 0 6 -7 10 -16 10 -8 0
-12 -4 -9 -10z"/>
    <path d="M1910 1935 c0 -8 5 -15 10 -15 6 0 10 7 10 15 0 8 -4 15 -10 15 -5 0
-10 -7 -10 -15z"/>
    <path d="M1430 1920 c0 -10 7 -23 17 -28 10 -6 14 -16 10 -26 -6 -16 13 -23
26 -10 5 6 -41 84 -49 84 -2 0 -4 -9 -4 -20z"/>
    <path d="M446 1921 c-4 -7 -5 -15 -2 -18 9 -9 19 4 14 18 -4 11 -6 11 -12 0z"/>
    <path d="M340 1896 c0 -9 7 -16 16 -16 9 0 14 5 12 12 -6 18 -28 21 -28 4z"/>
    <path d="M1290 1906 c0 -17 24 -66 32 -64 5 2 9 7 9 11 -1 4 -1 18 -1 32 0 18
-5 25 -20 25 -11 0 -20 -2 -20 -4z"/>
    <path d="M1870 1899 c0 -5 5 -7 10 -4 6 3 10 8 10 11 0 2 -4 4 -10 4 -5 0 -10
-5 -10 -11z"/>
    <path d="M1930 1900 c-8 -5 -12 -12 -9 -15 8 -8 39 5 39 16 0 11 -11 11 -30
-1z"/>
    <path d="M1075 1890 c4 -6 11 -8 16 -5 14 9 11 15 -7 15 -8 0 -12 -5 -9 -10z"/>
    <path d="M976 1864 c-15 -14 -27 -27 -25 -29 9 -9 69 26 69 40 0 21 -10 19
-44 -11z"/>
    <path d="M1770 1870 c0 -5 5 -10 10 -10 6 0 10 5 10 10 0 6 -4 10 -10 10 -5 0
-10 -4 -10 -10z"/>
    <path d="M2197 1861 c3 -12 12 -21 20 -21 20 0 12 34 -9 38 -12 2 -15 -2 -11
-17z"/>
    <path d="M1803 1836 c-34 -17 -62 -35 -62 -39 -2 -24 138 34 147 61 6 18 -16
13 -85 -22z"/>
    <path d="M1920 1860 c0 -5 5 -10 10 -10 6 0 10 5 10 10 0 6 -4 10 -10 10 -5 0
-10 -4 -10 -10z"/>
    <path d="M361 1844 c0 -11 3 -14 6 -6 3 7 2 16 -1 19 -3 4 -6 -2 -5 -13z"/>
    <path d="M320 1800 c0 -29 4 -40 13 -37 6 2 12 19 12 37 0 18 -6 35 -12 38 -9
2 -13 -9 -13 -38z"/>
    <path d="M400 1821 c0 -6 5 -13 10 -16 6 -3 10 1 10 9 0 9 -4 16 -10 16 -5 0
-10 -4 -10 -9z"/>
    <path d="M1080 1820 c0 -5 5 -10 10 -10 6 0 10 5 10 10 0 6 -4 10 -10 10 -5 0
-10 -4 -10 -10z"/>
    <path d="M1430 1811 c0 -17 18 -21 24 -6 3 9 0 15 -9 15 -8 0 -15 -4 -15 -9z"/>
    <path d="M1320 1791 c0 -16 12 -41 20 -41 4 0 5 11 2 25 -4 23 -22 36 -22 16z"/>
    <path d="M1939 1780 c-14 -11 -18 -19 -11 -20 19 0 52 19 52 30 0 16 -16 12
-41 -10z"/>
    <path d="M2379 1780 c-19 -15 -21 -19 -7 -20 15 0 48 24 48 36 0 10 -20 3 -41
-16z"/>
    <path d="M2897 1793 c-11 -10 -8 -43 3 -43 6 0 10 11 10 25 0 26 -2 29 -13 18z"/>
    <path d="M1374 1766 c-10 -25 -43 -40 -59 -26 -10 8 -14 8 -18 -2 -7 -22 3
-36 24 -31 13 4 30 -4 50 -23 39 -37 53 -24 42 41 -8 49 -28 70 -39 41z"/>
    <path d="M3275 1770 c3 -5 10 -10 16 -10 5 0 9 5 9 10 0 6 -7 10 -16 10 -8 0
-12 -4 -9 -10z"/>
    <path d="M1815 1756 c-17 -12 -18 -17 -6 -42 l14 -29 7 31 c4 17 10 36 14 42
10 16 -6 15 -29 -2z"/>
    <path d="M370 1745 c0 -8 5 -15 10 -15 6 0 10 7 10 15 0 8 -4 15 -10 15 -5 0
-10 -7 -10 -15z"/>
    <path d="M3500 1755 c0 -5 12 -23 26 -40 14 -16 21 -21 15 -10 -14 30 -40 61
-41 50z"/>
    <path d="M3390 1726 c0 -9 5 -16 10 -16 6 0 10 4 10 9 0 6 -4 13 -10 16 -5 3
-10 -1 -10 -9z"/>
    <path d="M3430 1729 c0 -5 5 -7 10 -4 6 3 10 8 10 11 0 2 -4 4 -10 4 -5 0 -10
-5 -10 -11z"/>
    <path d="M1000 1720 c0 -5 7 -10 15 -10 8 0 15 5 15 10 0 6 -7 10 -15 10 -8 0
-15 -4 -15 -10z"/>
    <path d="M2895 1719 c-10 -15 3 -25 16 -12 7 7 7 13 1 17 -6 3 -14 1 -17 -5z"/>
    <path d="M3279 1688 c-45 -30 -59 -43 -46 -46 18 -4 60 20 112 63 50 41 5 30
-66 -17z"/>
    <path d="M1760 1699 c0 -11 5 -17 10 -14 6 3 10 13 10 21 0 8 -4 14 -10 14 -5
0 -10 -9 -10 -21z"/>
    <path d="M360 1706 c0 -2 7 -9 15 -16 12 -10 15 -10 15 4 0 9 -7 16 -15 16 -8
0 -15 -2 -15 -4z"/>
    <path d="M3426 1694 c-16 -41 -6 -75 34 -114 44 -44 50 -70 20 -100 -23 -23
-30 -24 -65 -8 -37 17 -41 4 -11 -47 25 -42 30 -45 69 -45 23 0 52 -3 65 -6
14 -4 22 -2 22 6 0 7 -7 10 -15 6 -13 -4 -13 -2 -5 14 6 11 26 22 46 26 63 12
58 37 -24 147 -34 44 -46 67 -36 67 8 0 12 5 9 10 -4 6 -14 8 -23 6 -12 -4
-23 4 -34 24 -19 33 -42 39 -52 14z"/>
    <path d="M960 1690 c0 -5 7 -10 15 -10 8 0 15 5 15 10 0 6 -7 10 -15 10 -8 0
-15 -4 -15 -10z"/>
    <path d="M1900 1690 c-12 -8 -11 -10 8 -10 12 0 22 5 22 10 0 13 -11 13 -30 0z"/>
    <path d="M466 1675 c-3 -8 -1 -15 4 -15 6 0 10 7 10 15 0 8 -2 15 -4 15 -2 0
-6 -7 -10 -15z"/>
    <path d="M726 1682 c-3 -5 4 -12 17 -16 33 -9 137 -7 137 2 0 5 -6 9 -12 9 -7
0 -41 4 -75 7 -35 4 -64 3 -67 -2z"/>
    <path d="M1063 1668 c-24 -51 -33 -81 -28 -86 3 -3 6 -3 8 -1 31 52 47 93 40
100 -6 6 -14 0 -20 -13z"/>
    <path d="M1317 1666 c-6 -15 1 -26 15 -26 11 0 10 27 -1 34 -5 3 -11 0 -14 -8z"/>
    <path d="M2876 1656 c3 -13 0 -42 -6 -66 -17 -64 4 -76 23 -13 17 55 12 103
-9 103 -10 0 -13 -7 -8 -24z"/>
    <path d="M905 1660 c28 -12 67 -12 60 0 -3 6 -23 10 -43 9 -30 0 -33 -2 -17
-9z"/>
    <path d="M3365 1649 c-4 -6 -5 -13 -2 -16 7 -7 27 6 27 18 0 12 -17 12 -25 -2z"/>
    <path d="M665 1640 c-3 -5 -2 -10 4 -10 5 0 13 5 16 10 3 6 2 10 -4 10 -5 0
-13 -4 -16 -10z"/>
    <path d="M1275 1639 c-4 -6 -5 -13 -2 -16 7 -7 27 6 27 18 0 12 -17 12 -25 -2z"/>
    <path d="M1932 1641 c-11 -7 -11 -9 1 -14 9 -3 21 1 27 9 10 11 10 14 -1 14
-8 0 -20 -4 -27 -9z"/>
    <path d="M2068 1635 c24 -11 39 -12 53 -5 30 16 23 20 -33 20 l-53 -1 33 -14z"/>
    <path d="M1850 1630 c0 -5 5 -10 10 -10 6 0 10 5 10 10 0 6 -4 10 -10 10 -5 0
-10 -4 -10 -10z"/>
    <path d="M2370 1630 c0 -5 5 -10 10 -10 6 0 10 5 10 10 0 6 -4 10 -10 10 -5 0
-10 -4 -10 -10z"/>
    <path d="M330 1614 c0 -8 9 -14 20 -14 11 0 20 4 20 9 0 5 -9 11 -20 14 -13 3
-20 0 -20 -9z"/>
    <path d="M494 1619 c-3 -6 -15 -9 -25 -6 -11 3 -19 2 -19 -3 0 -4 10 -10 22
-13 22 -6 48 7 48 24 0 13 -17 11 -26 -2z"/>
    <path d="M710 1620 c0 -5 5 -10 10 -10 6 0 10 5 10 10 0 6 -4 10 -10 10 -5 0
-10 -4 -10 -10z"/>
    <path d="M2170 1615 c-6 -7 -3 -11 8 -11 9 0 56 -4 105 -8 58 -5 87 -4 87 3 0
14 -29 19 -118 23 -44 2 -77 -1 -82 -7z"/>
    <path d="M3000 1570 c-25 -67 -21 -94 5 -34 25 57 35 94 26 94 -5 0 -19 -27
-31 -60z"/>
    <path d="M1401 1589 c-35 -34 -38 -51 -16 -69 14 -12 15 -9 10 19 -5 29 -2 34
25 44 16 6 30 17 30 24 0 21 -16 15 -49 -18z"/>
    <path d="M1738 1613 c-13 -3 -18 -15 -18 -43 0 -41 8 -53 28 -41 10 6 9 11 -3
21 -8 7 -15 19 -15 27 0 13 3 13 15 3 13 -11 15 -8 15 14 0 14 -1 25 -2 25 -2
-1 -11 -3 -20 -6z"/>
    <path d="M1780 1598 c0 -15 6 -19 27 -16 40 4 42 33 3 34 -23 1 -30 -3 -30
-18z"/>
    <path d="M1980 1610 c0 -5 7 -10 15 -10 8 0 15 5 15 10 0 6 -7 10 -15 10 -8 0
-15 -4 -15 -10z"/>
    <path d="M2447 1598 c-19 -30 -31 -68 -20 -68 10 1 47 79 40 86 -3 3 -12 -5
-20 -18z"/>
    <path d="M3360 1610 c0 -5 5 -10 11 -10 5 0 7 5 4 10 -3 6 -8 10 -11 10 -2 0
-4 -4 -4 -10z"/>
    <path d="M754 1595 c-10 -8 -31 -15 -45 -15 -14 0 -28 -2 -31 -5 -2 -3 0 -32
5 -66 13 -80 31 -92 121 -83 36 4 72 12 80 18 8 7 16 39 19 82 l6 72 -31 6
c-52 10 -103 7 -124 -9z"/>
    <path d="M955 1597 c-4 -10 -5 -21 -1 -24 10 -10 18 4 13 24 -4 17 -4 17 -12
0z"/>
    <path d="M1330 1601 c0 -6 5 -13 10 -16 6 -3 10 1 10 9 0 9 -4 16 -10 16 -5 0
-10 -4 -10 -9z"/>
    <path d="M1937 1603 c-12 -11 -8 -23 8 -23 8 0 15 7 15 15 0 16 -12 20 -23 8z"/>
    <path d="M507 1583 c-13 -13 -7 -32 8 -27 8 4 15 12 15 20 0 15 -12 19 -23 7z"/>
    <path d="M1254 1579 c-7 -11 27 -11 45 0 9 6 5 9 -13 9 -15 0 -29 -4 -32 -9z"/>
    <path d="M2035 1580 c3 -5 15 -10 26 -10 11 0 17 5 14 10 -3 6 -15 10 -26 10
-11 0 -17 -4 -14 -10z"/>
    <path d="M3280 1575 c0 -8 7 -15 16 -15 14 0 14 3 4 15 -7 8 -14 15 -16 15 -2
0 -4 -7 -4 -15z"/>
    <path d="M367 1556 c-19 -15 -26 -28 -21 -39 8 -23 25 -22 18 1 -5 14 -3 14
11 -3 9 -11 19 -33 22 -48 7 -34 22 -41 68 -33 25 5 39 15 50 36 17 34 18 40
6 40 -5 0 -33 16 -62 35 -30 19 -56 35 -59 35 -3 -1 -18 -11 -33 -24z"/>
    <path d="M1435 1571 c-3 -6 -1 -11 4 -11 6 0 11 -7 11 -15 0 -8 -5 -15 -12
-15 -6 0 -9 -2 -6 -5 12 -12 39 9 36 28 -3 23 -23 33 -33 18z"/>
    <path d="M2156 1571 c-4 -7 -5 -15 -2 -18 9 -9 19 4 14 18 -4 11 -6 11 -12 0z"/>
    <path d="M3325 1570 c3 -5 10 -10 16 -10 5 0 9 5 9 10 0 6 -7 10 -16 10 -8 0
-12 -4 -9 -10z"/>
    <path d="M3390 1570 c0 -5 4 -10 9 -10 6 0 13 5 16 10 3 6 -1 10 -9 10 -9 0
-16 -4 -16 -10z"/>
    <path d="M620 1555 c0 -8 5 -15 10 -15 6 0 10 7 10 15 0 8 -4 15 -10 15 -5 0
-10 -7 -10 -15z"/>
    <path d="M1810 1545 c-10 -12 -9 -16 4 -21 17 -7 22 -34 6 -34 -12 0 -14 -37
-2 -44 4 -2 14 -1 21 3 9 6 11 21 6 55 -8 52 -17 63 -35 41z"/>
    <path d="M2030 1545 c0 -9 5 -15 11 -13 6 2 11 8 11 13 0 5 -5 11 -11 13 -6 2
-11 -4 -11 -13z"/>
    <path d="M2360 1540 c0 -19 3 -21 12 -12 9 9 9 15 0 24 -9 9 -12 7 -12 -12z"/>
    <path d="M2810 1545 c-3 -35 1 -170 6 -174 9 -9 13 8 15 60 1 53 -17 154 -21
114z"/>
    <path d="M3433 1543 c3 -13 1 -26 -5 -29 -10 -6 8 -24 25 -24 13 0 7 36 -9 56
-15 19 -15 18 -11 -3z"/>
    <path d="M530 1540 c0 -5 5 -10 10 -10 6 0 10 5 10 10 0 6 -4 10 -10 10 -5 0
-10 -4 -10 -10z"/>
    <path d="M947 1530 c-8 -32 7 -93 17 -70 4 9 3 34 -2 55 -8 37 -9 38 -15 15z"/>
    <path d="M2156 1535 c-27 -8 -53 -20 -58 -27 -9 -15 -11 -64 -1 -55 3 4 13 -2
20 -13 24 -34 67 -50 116 -44 25 4 49 9 54 13 12 8 33 114 24 124 -14 14 -106
16 -155 2z"/>
    <path d="M1955 1530 c-3 -5 1 -10 9 -10 9 0 16 5 16 10 0 6 -4 10 -9 10 -6 0
-13 -4 -16 -10z"/>
    <path d="M2727 1534 c-4 -4 -7 -19 -6 -33 l0 -26 10 24 c10 26 8 47 -4 35z"/>
    <path d="M555 1520 c-3 -5 1 -10 9 -10 8 0 18 5 21 10 3 6 -1 10 -9 10 -8 0
-18 -4 -21 -10z"/>
    <path d="M3290 1526 c0 -9 32 -36 41 -36 6 0 5 8 -1 20 -9 17 -40 29 -40 16z"/>
    <path d="M630 1505 c0 -8 5 -15 10 -15 6 0 10 7 10 15 0 8 -4 15 -10 15 -5 0
-10 -7 -10 -15z"/>
    <path d="M2908 1509 c-10 -5 -18 -19 -18 -29 0 -24 3 -24 40 -5 19 10 27 20
24 30 -7 17 -22 19 -46 4z"/>
    <path d="M1901 1501 c-8 -5 -9 -11 -3 -15 5 -3 15 1 22 9 14 16 3 20 -19 6z"/>
    <path d="M2358 1488 c-4 -39 -3 -68 4 -68 4 0 8 18 8 40 0 37 -8 56 -12 28z"/>
    <path d="M1957 1444 c-31 -19 -57 -39 -57 -44 0 -18 23 -22 32 -6 5 9 14 16
21 16 7 0 30 16 52 35 53 45 26 45 -48 -1z"/>
    <path d="M340 1460 c0 -5 7 -10 15 -10 8 0 15 5 15 10 0 6 -7 10 -15 10 -8 0
-15 -4 -15 -10z"/>
    <path d="M3330 1460 c0 -5 5 -10 10 -10 6 0 10 5 10 10 0 6 -4 10 -10 10 -5 0
-10 -4 -10 -10z"/>
    <path d="M540 1445 c0 -8 5 -15 10 -15 6 0 10 7 10 15 0 8 -4 15 -10 15 -5 0
-10 -7 -10 -15z"/>
    <path d="M587 1453 c-16 -15 -5 -24 25 -21 41 4 50 28 11 28 -17 0 -33 -3 -36
-7z"/>
    <path d="M1340 1449 l-35 -5 37 -8 c43 -9 61 -5 45 9 -7 6 -28 8 -47 4z"/>
    <path d="M2711 1434 c0 -11 3 -14 6 -6 3 7 2 16 -1 19 -3 4 -6 -2 -5 -13z"/>
    <path d="M2756 1409 c-4 -23 -5 -44 -2 -46 2 -2 7 14 11 37 4 23 5 43 2 46 -2
3 -7 -14 -11 -37z"/>
    <path d="M1256 1422 c-3 -5 -1 -14 3 -20 6 -10 10 -10 20 1 9 12 8 16 -3 20
-9 4 -17 3 -20 -1z"/>
    <path d="M2090 1409 c0 -5 5 -7 10 -4 6 3 10 8 10 11 0 2 -4 4 -10 4 -5 0 -10
-5 -10 -11z"/>
    <path d="M2920 1410 c-8 -5 -12 -12 -9 -15 4 -3 12 1 19 10 14 17 11 19 -10 5z"/>
    <path d="M800 1399 c0 -5 5 -7 10 -4 6 3 10 8 10 11 0 2 -4 4 -10 4 -5 0 -10
-5 -10 -11z"/>
    <path d="M3362 1397 c-6 -7 -7 -18 -3 -26 7 -10 10 -8 16 8 8 27 2 36 -13 18z"/>
    <path d="M3570 1400 c0 -5 6 -10 14 -10 8 0 18 5 21 10 3 6 -3 10 -14 10 -12
0 -21 -4 -21 -10z"/>
    <path d="M3665 1400 c-3 -5 3 -10 14 -10 11 0 25 -8 30 -17 6 -10 10 -13 10
-8 0 15 -25 45 -37 45 -6 0 -14 -4 -17 -10z"/>
    <path d="M660 1396 c0 -2 16 -13 35 -25 38 -22 49 -12 13 13 -21 15 -48 21
-48 12z"/>
    <path d="M590 1381 c0 -5 6 -11 13 -13 17 -7 38 2 31 13 -7 12 -44 12 -44 0z"/>
    <path d="M515 1370 c3 -5 8 -10 11 -10 2 0 4 5 4 10 0 6 -5 10 -11 10 -5 0 -7
-4 -4 -10z"/>
    <path d="M550 1365 c0 -8 5 -15 10 -15 6 0 10 7 10 15 0 8 -4 15 -10 15 -5 0
-10 -7 -10 -15z"/>
    <path d="M2000 1370 c0 -5 4 -10 9 -10 6 0 13 5 16 10 3 6 -1 10 -9 10 -9 0
-16 -4 -16 -10z"/>
    <path d="M2110 1373 c0 -7 33 -32 43 -33 16 0 5 16 -18 27 -14 6 -25 9 -25 6z"/>
    <path d="M2920 1350 c0 -6 7 -10 15 -10 8 0 15 2 15 4 0 2 -7 6 -15 10 -8 3
-15 1 -15 -4z"/>
    <path d="M0 745 c0 -22 19 -38 21 -17 0 4 2 15 4 25 2 9 -3 17 -11 17 -8 0
-14 -10 -14 -25z"/>
    <path d="M0 689 c0 -13 4 -18 12 -13 11 6 11 4 1 -7 -18 -18 -16 -39 2 -39 14
0 20 22 16 60 -2 13 -1 13 8 0 5 -8 13 -11 18 -7 9 10 -16 27 -39 27 -12 0
-18 -8 -18 -21z"/>
    <path d="M140 600 c0 -5 5 -10 10 -10 6 0 10 5 10 10 0 6 -4 10 -10 10 -5 0
-10 -4 -10 -10z"/>
    <path d="M246 575 c-8 -8 -20 -15 -27 -15 -10 0 -10 -3 -1 -12 9 -9 16 -6 32
12 11 13 20 25 20 27 0 7 -9 2 -24 -12z"/>
    <path d="M15 530 c-3 -5 -1 -10 5 -10 7 0 10 -7 6 -15 -6 -16 20 -45 120 -134
51 -46 197 -179 293 -268 61 -56 108 -80 124 -64 7 7 1 14 -16 22 -15 7 -27
16 -27 20 0 8 -59 66 -145 143 -22 19 -46 36 -53 36 -7 0 -11 3 -9 8 2 4 -26
34 -64 67 -43 38 -67 66 -65 77 3 11 -1 15 -11 11 -9 -4 -31 12 -57 41 -24 25
-50 46 -59 46 -10 0 -17 7 -17 15 0 17 -16 20 -25 5z"/>
    <path d="M125 530 c-3 -5 -1 -10 4 -10 6 0 11 5 11 10 0 6 -2 10 -4 10 -3 0
-8 -4 -11 -10z"/>
    <path d="M177 513 c-4 -3 -7 -11 -7 -17 0 -6 5 -5 12 2 6 6 9 14 7 17 -3 3 -9
2 -12 -2z"/>
    <path d="M350 430 c0 -5 7 -10 16 -10 8 0 12 5 9 10 -3 6 -10 10 -16 10 -5 0
-9 -4 -9 -10z"/>
    <path d="M425 430 c-3 -5 1 -10 9 -10 9 0 16 5 16 10 0 6 -4 10 -9 10 -6 0
-13 -4 -16 -10z"/>
    <path d="M71 396 c-7 -8 -8 -17 -3 -20 6 -3 12 3 15 14 6 24 4 25 -12 6z"/>
  </g>
</svg>
